[gd_scene load_steps=16 format=2]

[ext_resource path="res://scenes/Player.tscn" type="PackedScene" id=1]
[ext_resource path="res://resources/DungeonWalls.tres" type="TileSet" id=2]
[ext_resource path="res://scenes/Room.tscn" type="PackedScene" id=3]
[ext_resource path="res://scenes/GUI.tscn" type="PackedScene" id=4]
[ext_resource path="res://scenes/GameOver.tscn" type="PackedScene" id=5]
[ext_resource path="res://scripts/World.gd" type="Script" id=6]
[ext_resource path="res://assets/sounds/world.wav" type="AudioStream" id=7]
[ext_resource path="res://scenes/Menu.tscn" type="PackedScene" id=8]
[ext_resource path="res://scenes/BossRoom.tscn" type="PackedScene" id=9]
[ext_resource path="res://assets/images/DungeonTilesetII/elf_f_idle_anim_f0.png" type="Texture" id=10]
[ext_resource path="res://assets/images/DungeonTilesetII/elf_f_idle_anim_f3.png" type="Texture" id=11]
[ext_resource path="res://assets/images/DungeonTilesetII/elf_f_idle_anim_f2.png" type="Texture" id=12]
[ext_resource path="res://assets/images/DungeonTilesetII/elf_f_idle_anim_f1.png" type="Texture" id=13]

[sub_resource type="RectangleShape2D" id=1]
extents = Vector2( 40, 56 )

[sub_resource type="SpriteFrames" id=2]
animations = [ {
"frames": [ ExtResource( 10 ), ExtResource( 13 ), ExtResource( 12 ), ExtResource( 11 ) ],
"loop": true,
"name": "default",
"speed": 5.0
} ]

[node name="World" type="Node2D"]
script = ExtResource( 6 )

[node name="TileMap" type="TileMap" parent="."]
position = Vector2( 3.05176e-05, 3.05176e-05 )
tile_set = ExtResource( 2 )
cell_size = Vector2( 16, 16 )
collision_mask = 14
format = 1
tile_data = PoolIntArray( 65537, 0, 65538, 65538, 0, 65538, 65539, 0, 65538, 65540, 0, 65538, 65541, 0, 65538, 65542, 0, 65538, 65543, 0, 65538, 65544, 0, 65538, 65545, 0, 65538, 65546, 0, 65538, 65547, 0, 65538, 65548, 0, 65538, 65549, 0, 65538, 65550, 0, 65538, 65551, 0, 65538, 65552, 0, 65538, 65553, 0, 65538, 65554, 0, 65538, 65555, 0, 65538, 65556, 0, 65538, 65557, 0, 65538, 65558, 0, 65538, 65559, 0, 65538, 65560, 0, 65538, 65561, 0, 65538, 65562, 0, 65538, 65563, 0, 65538, 65564, 0, 65538, 65567, 0, 65538, 65568, 0, 65539, 65569, 0, 65539, 65570, 0, 65539, 65571, 0, 65539, 65572, 0, 65539, 65573, 0, 65539, 65574, 0, 65539, 65575, 0, 65539, 65576, 0, 65539, 65577, 0, 65539, 65578, 0, 65539, 65579, 0, 65539, 65580, 0, 65539, 65581, 0, 65539, 65582, 0, 65539, 65583, 0, 65539, 65584, 0, 65539, 65585, 0, 65539, 65586, 0, 65539, 65587, 0, 65539, 65588, 0, 65539, 65589, 0, 65539, 65590, 0, 65539, 65591, 0, 65539, 65592, 0, 65539, 65593, 0, 65539, 65594, 0, 65539, 131073, 0, 262145, 131074, 0, 262145, 131075, 0, 262145, 131076, 0, 262145, 131077, 0, 262145, 131078, 0, 262145, 131079, 0, 262145, 131080, 0, 262145, 131081, 0, 262145, 131082, 0, 262145, 131083, 0, 262145, 131084, 0, 262145, 131085, 0, 262145, 131086, 0, 262145, 131087, 0, 262145, 131088, 0, 262145, 131089, 0, 262145, 131090, 0, 262145, 131091, 0, 262145, 131092, 0, 262145, 131093, 0, 262145, 131094, 0, 262145, 131095, 0, 262145, 131096, 0, 262145, 131097, 0, 262145, 131098, 0, 262145, 131099, 0, 262145, 131100, 0, 262145, 131103, 0, 262145, 131104, 0, 262145, 131105, 0, 262145, 131106, 0, 262145, 131107, 0, 262145, 131108, 0, 262146, 131109, 0, 262146, 131110, 0, 262146, 131111, 0, 262146, 131112, 0, 262146, 131113, 0, 262146, 131114, 0, 262146, 131115, 0, 262146, 131116, 0, 262146, 131117, 0, 262146, 131118, 0, 262146, 131119, 0, 262146, 131120, 0, 262146, 131121, 0, 262146, 131122, 0, 262146, 131123, 0, 262146, 131124, 0, 262146, 131125, 0, 262146, 131126, 0, 262146, 131127, 0, 262146, 131128, 0, 262146, 131129, 0, 262146, 131130, 0, 262145, 196609, 0, 262145, 196610, 0, 262145, 196611, 0, 262145, 196612, 0, 262145, 196613, 0, 262147, 196614, 0, 262147, 196615, 0, 262147, 196616, 0, 262145, 196617, 0, 262145, 196618, 0, 262146, 196619, 0, 262146, 196620, 0, 262146, 196621, 0, 262146, 196622, 0, 262146, 196623, 0, 262146, 196624, 0, 262146, 196625, 0, 262146, 196626, 0, 262146, 196627, 0, 262146, 196628, 0, 262147, 196629, 0, 262147, 196630, 0, 262147, 196631, 0, 262147, 196632, 0, 262147, 196633, 0, 262147, 196634, 0, 262145, 196635, 0, 262145, 196636, 0, 262145, 196639, 0, 262145, 196640, 0, 262145, 196641, 0, 262145, 196642, 0, 262146, 196643, 0, 262146, 196644, 0, 262146, 196645, 0, 262146, 196646, 0, 262145, 196647, 0, 262146, 196648, 0, 262146, 196649, 0, 262146, 196650, 0, 262146, 196651, 0, 262146, 196652, 0, 262146, 196653, 0, 262146, 196654, 0, 262146, 196655, 0, 262146, 196656, 0, 262146, 196657, 0, 262146, 196658, 0, 262146, 196659, 0, 262146, 196660, 0, 262146, 196661, 0, 262146, 196662, 0, 262146, 196663, 0, 262146, 196664, 0, 262146, 196665, 0, 262146, 196666, 0, 262145, 262145, 0, 262145, 262146, 0, 262145, 262147, 0, 262145, 262148, 0, 262147, 262149, 0, 262147, 262150, 0, 262145, 262151, 0, 262145, 262152, 0, 262147, 262153, 0, 262147, 262154, 0, 262147, 262155, 0, 262147, 262156, 0, 262145, 262157, 0, 262145, 262158, 0, 262145, 262159, 0, 262145, 262160, 0, 262145, 262161, 0, 262145, 262162, 0, 262145, 262163, 0, 262146, 262164, 0, 262145, 262165, 0, 262145, 262166, 0, 262145, 262167, 0, 262147, 262168, 0, 262147, 262169, 0, 262147, 262170, 0, 262147, 262171, 0, 262145, 262172, 0, 262145, 262175, 0, 262145, 262176, 0, 262145, 262177, 0, 262145, 262178, 0, 262146, 262179, 0, 262146, 262180, 0, 262145, 262181, 0, 262145, 262182, 0, 262146, 262183, 0, 262146, 262184, 0, 262146, 262185, 0, 262146, 262186, 0, 262147, 262187, 0, 262147, 262188, 0, 262147, 262189, 0, 262147, 262190, 0, 262147, 262191, 0, 262147, 262192, 0, 262147, 262193, 0, 262147, 262194, 0, 262147, 262195, 0, 262146, 262196, 0, 262145, 262197, 0, 262145, 262198, 0, 262146, 262199, 0, 262146, 262200, 0, 262146, 262201, 0, 262146, 262202, 0, 262145, 327681, 0, 262145, 327682, 0, 262145, 327683, 0, 262145, 327684, 0, 262145, 327685, 0, 262147, 327686, 0, 262147, 327687, 0, 262145, 327688, 0, 262145, 327689, 0, 262145, 327690, 0, 262145, 327691, 0, 262147, 327692, 0, 262147, 327693, 0, 262147, 327694, 0, 262145, 327695, 0, 262145, 327696, 0, 262145, 327697, 0, 262145, 327698, 0, 262145, 327699, 0, 262145, 327700, 0, 262145, 327701, 0, 262145, 327702, 0, 262145, 327703, 0, 262147, 327704, 0, 262145, 327705, 0, 262145, 327706, 0, 262147, 327707, 0, 262145, 327708, 0, 262145, 327711, 0, 262145, 327712, 0, 262145, 327713, 0, 262145, 327714, 0, 262146, 327715, 0, 262146, 327716, 0, 262145, 327717, 0, 262145, 327718, 0, 262146, 327719, 0, 262146, 327720, 0, 262147, 327721, 0, 262147, 327722, 0, 262147, 327723, 0, 262147, 327724, 0, 262146, 327725, 0, 262145, 327726, 0, 262145, 327727, 0, 262146, 327728, 0, 262145, 327729, 0, 262145, 327730, 0, 262145, 327731, 0, 262145, 327732, 0, 262145, 327733, 0, 262145, 327734, 0, 262145, 327735, 0, 262146, 327736, 0, 262146, 327737, 0, 262146, 327738, 0, 262145, 393217, 0, 262145, 393218, 0, 262145, 393219, 0, 262145, 393220, 0, 262145, 393221, 0, 262145, 393222, 0, 262145, 393223, 0, 262145, 393224, 0, 262145, 393225, 0, 262145, 393226, 0, 262147, 393227, 0, 262147, 393228, 0, 262145, 393229, 0, 262145, 393230, 0, 262145, 393231, 0, 262145, 393232, 0, 262145, 393233, 0, 262147, 393234, 0, 262146, 393235, 0, 262145, 393236, 0, 262145, 393237, 0, 262145, 393238, 0, 262145, 393239, 0, 262145, 393240, 0, 262145, 393241, 0, 262145, 393242, 0, 262147, 393243, 0, 262147, 393244, 0, 262145, 393247, 0, 262145, 393248, 0, 262145, 393249, 0, 262145, 393250, 0, 262146, 393251, 0, 262146, 393252, 0, 262145, 393253, 0, 262145, 393254, 0, 262146, 393255, 0, 262146, 393256, 0, 262146, 393257, 0, 262146, 393258, 0, 262147, 393259, 0, 262147, 393260, 0, 262147, 393261, 0, 262147, 393262, 0, 262145, 393263, 0, 262145, 393264, 0, 262145, 393265, 0, 262145, 393266, 0, 262145, 393267, 0, 262145, 393268, 0, 262147, 393269, 0, 262145, 393270, 0, 262145, 393271, 0, 262145, 393272, 0, 262146, 393273, 0, 262146, 393274, 0, 262145, 458753, 0, 262145, 458754, 0, 262145, 458755, 0, 262145, 458756, 0, 262145, 458757, 0, 262146, 458758, 0, 262145, 458759, 0, 262145, 458760, 0, 262145, 458761, 0, 262146, 458762, 0, 262147, 458763, 0, 262145, 458764, 0, 262145, 458765, 0, 262145, 458766, 0, 262147, 458767, 0, 262145, 458768, 0, 262145, 458769, 0, 262145, 458770, 0, 262145, 458771, 0, 262145, 458772, 0, 262145, 458773, 0, 262145, 458774, 0, 262147, 458775, 0, 262145, 458776, 0, 262145, 458777, 0, 262145, 458778, 0, 262147, 458779, 0, 262145, 458780, 0, 262145, 458783, 0, 262145, 458784, 0, 262145, 458785, 0, 262145, 458786, 0, 262146, 458787, 0, 262146, 458788, 0, 262145, 458789, 0, 262145, 458790, 0, 262145, 458791, 0, 262145, 458792, 0, 262145, 458793, 0, 262145, 458794, 0, 262145, 458795, 0, 262147, 458796, 0, 262147, 458797, 0, 262147, 458798, 0, 262147, 458799, 0, 262145, 458800, 0, 262145, 458801, 0, 262145, 458802, 0, 262145, 458803, 0, 262145, 458804, 0, 262145, 458805, 0, 262145, 458806, 0, 262145, 458807, 0, 262145, 458808, 0, 262146, 458809, 0, 262146, 458810, 0, 262145, 524289, 0, 262145, 524290, 0, 262145, 524291, 0, 262145, 524292, 0, 262146, 524293, 0, 262146, 524294, 0, 262145, 524295, 0, 262145, 524296, 0, 262145, 524297, 0, 262145, 524298, 0, 262147, 524299, 0, 262145, 524300, 0, 262145, 524301, 0, 262146, 524302, 0, 262145, 524303, 0, 262145, 524304, 0, 262145, 524305, 0, 262145, 524306, 0, 262145, 524307, 0, 262145, 524308, 0, 262145, 524309, 0, 262147, 524310, 0, 262145, 524311, 0, 262145, 524312, 0, 262145, 524313, 0, 262146, 524314, 0, 262146, 524315, 0, 262145, 524316, 0, 262145, 524319, 0, 262145, 524320, 0, 262145, 524321, 0, 262145, 524322, 0, 262146, 524323, 0, 262146, 524324, 0, 262145, 524325, 0, 262147, 524326, 0, 262147, 524327, 0, 262147, 524328, 0, 262147, 524329, 0, 262147, 524330, 0, 262147, 524331, 0, 262147, 524332, 0, 262145, 524333, 0, 262146, 524334, 0, 262147, 524335, 0, 262145, 524336, 0, 262145, 524337, 0, 262145, 524338, 0, 262145, 524339, 0, 262145, 524340, 0, 262145, 524341, 0, 327683, 524342, 0, 327681, 524343, 0, 262145, 524344, 0, 262146, 524345, 0, 262146, 524346, 0, 262145, 589825, 0, 262145, 589826, 0, 262145, 589827, 0, 262145, 589828, 0, 262145, 589829, 0, 262146, 589830, 0, 262145, 589831, 0, 262145, 589832, 0, 262145, 589833, 0, 262145, 589834, 0, 262145, 589835, 0, 262145, 589836, 0, 262146, 589837, 0, 262147, 589838, 0, 262145, 589839, 0, 262145, 589840, 0, 262145, 589841, 0, 262145, 589842, 0, 262145, 589843, 0, 262145, 589844, 0, 262147, 589845, 0, 262145, 589846, 0, 262145, 589847, 0, 262145, 589848, 0, 262145, 589849, 0, 262146, 589850, 0, 262147, 589851, 0, 262145, 589852, 0, 262145, 589855, 0, 262145, 589856, 0, 262145, 589857, 0, 262145, 589858, 0, 262146, 589859, 0, 262146, 589860, 0, 262145, 589861, 0, 262145, 589862, 0, 262145, 589863, 0, 262147, 589864, 0, 262145, 589865, 0, 262145, 589866, 0, 262145, 589867, 0, 262145, 589868, 0, 262145, 589869, 0, 262145, 589870, 0, 262145, 589871, 0, 262145, 589872, 0, 262145, 589873, 0, 262145, 589874, 0, 262145, 589875, 0, 262145, 589876, 0, 262147, 589877, 0, 393217, 589878, 0, 393218, 589879, 0, 262145, 589880, 0, 262146, 589881, 0, 262146, 589882, 0, 262145, 655361, 0, 262145, 655362, 0, 262145, 655363, 0, 262147, 655364, 0, 262145, 655365, 0, 262146, 655366, 0, 262146, 655367, 0, 262145, 655368, 0, 262145, 655369, 0, 262145, 655370, 0, 262145, 655371, 0, 262147, 655372, 0, 262147, 655373, 0, 262145, 655374, 0, 262145, 655375, 0, 262145, 655376, 0, 262145, 655377, 0, 262147, 655378, 0, 262147, 655379, 0, 262145, 655380, 0, 262146, 655381, 0, 262146, 655382, 0, 262145, 655383, 0, 262146, 655384, 0, 262146, 655385, 0, 262146, 655386, 0, 262147, 655387, 0, 262145, 655388, 0, 262145, 655391, 0, 262145, 655392, 0, 262145, 655393, 0, 262145, 655394, 0, 262146, 655395, 0, 262147, 655396, 0, 262146, 655397, 0, 262146, 655398, 0, 262145, 655399, 0, 262145, 655400, 0, 262145, 655401, 0, 262145, 655402, 0, 262145, 655403, 0, 262145, 655404, 0, 262147, 655405, 0, 262147, 655406, 0, 262145, 655407, 0, 262145, 655408, 0, 262145, 655409, 0, 262145, 655410, 0, 262145, 655411, 0, 262147, 655412, 0, 262145, 655413, 0, 262145, 655414, 0, 262145, 655415, 0, 262145, 655416, 0, 262145, 655417, 0, 262146, 655418, 0, 262145, 720897, 0, 262145, 720898, 0, 262145, 720899, 0, 262147, 720900, 0, 262145, 720901, 0, 262145, 720902, 0, 262146, 720903, 0, 262146, 720904, 0, 262146, 720905, 0, 262145, 720906, 0, 262145, 720907, 0, 262145, 720908, 0, 262145, 720909, 0, 262145, 720910, 0, 327681, 720911, 0, 262145, 720912, 0, 262147, 720913, 0, 262147, 720914, 0, 262147, 720915, 0, 262145, 720916, 0, 262146, 720917, 0, 262146, 720918, 0, 262146, 720919, 0, 262146, 720920, 0, 262145, 720921, 0, 262145, 720922, 0, 262147, 720923, 0, 262147, 720924, 0, 262145, 720925, 0, 65537, 720926, 0, 65539, 720927, 0, 262145, 720928, 0, 262145, 720929, 0, 262145, 720930, 0, 262146, 720931, 0, 262147, 720932, 0, 262146, 720933, 0, 262146, 720934, 0, 262146, 720935, 0, 262146, 720936, 0, 262147, 720937, 0, 262147, 720938, 0, 262147, 720939, 0, 262147, 720940, 0, 262147, 720941, 0, 262147, 720942, 0, 262147, 720943, 0, 262147, 720944, 0, 262145, 720945, 0, 262147, 720946, 0, 262145, 720947, 0, 262145, 720948, 0, 262145, 720949, 0, 262145, 720950, 0, 262145, 720951, 0, 262146, 720952, 0, 262145, 720953, 0, 262146, 720954, 0, 262145, 786433, 0, 262145, 786434, 0, 262145, 786435, 0, 262147, 786436, 0, 262147, 786437, 0, 262145, 786438, 0, 262145, 786439, 0, 262145, 786440, 0, 262145, 786441, 0, 262145, 786442, 0, 262145, 786443, 0, 262145, 786444, 0, 262145, 786445, 0, 262145, 786446, 0, 262145, 786447, 0, 262147, 786448, 0, 262147, 786449, 0, 262145, 786450, 0, 262145, 786451, 0, 262147, 786452, 0, 262145, 786453, 0, 262146, 786454, 0, 262145, 786455, 0, 262145, 786456, 0, 262145, 786457, 0, 262145, 786458, 0, 262145, 786459, 0, 262147, 786460, 0, 262145, 786461, 0, 262145, 786462, 0, 262145, 786463, 0, 262145, 786464, 0, 262145, 786465, 0, 262145, 786466, 0, 262145, 786467, 0, 262145, 786468, 0, 262145, 786469, 0, 262145, 786470, 0, 262145, 786471, 0, 262147, 786472, 0, 262147, 786473, 0, 262146, 786474, 0, 262147, 786475, 0, 262147, 786476, 0, 262147, 786477, 0, 262147, 786478, 0, 262147, 786479, 0, 262147, 786480, 0, 262145, 786481, 0, 262145, 786482, 0, 262147, 786483, 0, 262146, 786484, 0, 262146, 786485, 0, 262146, 786486, 0, 262146, 786487, 0, 262145, 786488, 0, 262145, 786489, 0, 262146, 786490, 0, 262145, 851969, 0, 262145, 851970, 0, 262145, 851971, 0, 262147, 851972, 0, 262147, 851973, 0, 262147, 851974, 0, 262147, 851975, 0, 262147, 851976, 0, 262145, 851977, 0, 262145, 851978, 0, 262145, 851979, 0, 262145, 851980, 0, 262145, 851981, 0, 262145, 851982, 0, 262145, 851983, 0, 262145, 851984, 0, 262145, 851985, 0, 262145, 851986, 0, 262147, 851987, 0, 262145, 851988, 0, 262145, 851989, 0, 262145, 851990, 0, 262145, 851991, 0, 262145, 851992, 0, 262145, 851993, 0, 262145, 851994, 0, 262145, 851995, 0, 262145, 851996, 0, 262145, 851997, 0, 262145, 851998, 0, 262145, 851999, 0, 262145, 852000, 0, 262145, 852001, 0, 262145, 852002, 0, 262146, 852003, 0, 262147, 852004, 0, 262145, 852005, 0, 262145, 852006, 0, 262145, 852007, 0, 262145, 852008, 0, 262145, 852009, 0, 262145, 852010, 0, 262145, 852011, 0, 262146, 852012, 0, 262147, 852013, 0, 262146, 852014, 0, 262145, 852015, 0, 262147, 852016, 0, 262147, 852017, 0, 262147, 852018, 0, 262146, 852019, 0, 262146, 852020, 0, 262146, 852021, 0, 262146, 852022, 0, 262145, 852023, 0, 262145, 852024, 0, 262146, 852025, 0, 262146, 852026, 0, 262145, 917505, 0, 262145, 917506, 0, 262145, 917507, 0, 262145, 917508, 0, 262145, 917509, 0, 262145, 917510, 0, 262145, 917511, 0, 262145, 917512, 0, 262145, 917513, 0, 262145, 917514, 0, 262145, 917515, 0, 262145, 917516, 0, 262145, 917517, 0, 262145, 917518, 0, 262145, 917519, 0, 262147, 917520, 0, 262147, 917521, 0, 262147, 917522, 0, 262145, 917523, 0, 262145, 917524, 0, 262145, 917525, 0, 262145, 917526, 0, 262145, 917527, 0, 262145, 917528, 0, 262145, 917529, 0, 262145, 917530, 0, 262145, 917531, 0, 262145, 917532, 0, 262145, 917533, 0, 65538, 917534, 0, 65538, 917535, 0, 262145, 917536, 0, 262145, 917537, 0, 262146, 917538, 0, 262146, 917539, 0, 262146, 917540, 0, 262146, 917541, 0, 262146, 917542, 0, 262146, 917543, 0, 262146, 917544, 0, 262147, 917545, 0, 262147, 917546, 0, 262147, 917547, 0, 262147, 917548, 0, 262147, 917549, 0, 262147, 917550, 0, 262145, 917551, 0, 262145, 917552, 0, 262145, 917553, 0, 262145, 917554, 0, 262145, 917555, 0, 262146, 917556, 0, 262146, 917557, 0, 262145, 917558, 0, 262145, 917559, 0, 262146, 917560, 0, 262146, 917561, 0, 262146, 917562, 0, 262145, 983040, 0, 589824, 983041, 0, 65538, 983042, 0, 65538, 983043, 0, 65538, 983044, 0, 65538, 983045, 0, 65538, 983046, 0, 65538, 983047, 0, 65538, 983048, 0, 65538, 983049, 0, 65538, 983050, 0, 65538, 983051, 0, 65538, 983052, 0, 65538, 983053, 0, 65538, 983054, 0, 65538, 983055, 0, 65538, 983056, 0, 65538, 983057, 0, 65538, 983058, 0, 65538, 983059, 0, 65538, 983060, 0, 65538, 983061, 0, 65538, 983062, 0, 65538, 983063, 0, 65538, 983064, 0, 65538, 983065, 0, 65538, 983066, 0, 65538, 983067, 0, 65538, 983068, 0, 65538, 983069, 0, 589825, 983070, 0, 589824, 983071, 0, 65538, 983072, 0, 65538, 983073, 0, 65538, 983074, 0, 65538, 983075, 0, 65538, 983076, 0, 65538, 983077, 0, 65538, 983078, 0, 65538, 983079, 0, 65538, 983080, 0, 65538, 983081, 0, 65538, 983082, 0, 65538, 983083, 0, 65538, 983084, 0, 65538, 983085, 0, 65538, 983086, 0, 65538, 983087, 0, 65538, 983088, 0, 65538, 983089, 0, 65538, 983090, 0, 65538, 983091, 0, 65538, 983092, 0, 65538, 983093, 0, 65538, 983094, 0, 65538, 983095, 0, 65538, 983096, 0, 262145, 983097, 0, 262145, 983098, 0, 65538, 983099, 0, 589825, 1048632, 0, 262145, 1048633, 0, 262145, 1114168, 0, 262145, 1114169, 0, 262145, 1179649, 0, 65537, 1179650, 0, 65538, 1179651, 0, 65538, 1179652, 0, 65538, 1179653, 0, 65538, 1179654, 0, 65538, 1179655, 0, 65538, 1179656, 0, 65538, 1179657, 0, 65538, 1179658, 0, 65538, 1179659, 0, 65538, 1179660, 0, 65538, 1179661, 0, 65538, 1179662, 0, 65538, 1179663, 0, 65538, 1179664, 0, 65538, 1179665, 0, 65538, 1179666, 0, 65538, 1179667, 0, 65538, 1179668, 0, 65538, 1179669, 0, 65538, 1179670, 0, 65538, 1179671, 0, 65538, 1179672, 0, 65538, 1179673, 0, 65538, 1179674, 0, 65538, 1179675, 0, 65538, 1179676, 0, 65538, 1179679, 0, 65538, 1179680, 0, 65538, 1179681, 0, 65538, 1179682, 0, 65538, 1179683, 0, 65538, 1179684, 0, 65538, 1179685, 0, 65538, 1179686, 0, 65538, 1179687, 0, 65538, 1179688, 0, 65538, 1179689, 0, 65538, 1179690, 0, 65538, 1179691, 0, 65538, 1179692, 0, 65538, 1179693, 0, 65538, 1179694, 0, 65538, 1179695, 0, 65538, 1179696, 0, 65538, 1179697, 0, 65538, 1179698, 0, 65538, 1179699, 0, 65538, 1179700, 0, 65538, 1179701, 0, 65538, 1179702, 0, 65538, 1179703, 0, 65539, 1179704, 0, 262145, 1179705, 0, 262145, 1179706, 0, 65537, 1245185, 0, 262145, 1245186, 0, 262145, 1245187, 0, 262145, 1245188, 0, 262145, 1245189, 0, 262145, 1245190, 0, 262145, 1245191, 0, 262145, 1245192, 0, 262145, 1245193, 0, 262145, 1245194, 0, 262145, 1245195, 0, 262145, 1245196, 0, 262145, 1245197, 0, 262145, 1245198, 0, 262145, 1245199, 0, 262145, 1245200, 0, 262145, 1245201, 0, 262145, 1245202, 0, 262145, 1245203, 0, 262145, 1245204, 0, 262145, 1245205, 0, 262145, 1245206, 0, 262145, 1245207, 0, 262145, 1245208, 0, 262145, 1245209, 0, 262145, 1245210, 0, 262145, 1245211, 0, 262145, 1245212, 0, 262145, 1245213, 0, 65537, 1245214, 0, 65539, 1245215, 0, 262145, 1245216, 0, 262145, 1245217, 0, 262145, 1245218, 0, 262145, 1245219, 0, 262145, 1245220, 0, 262145, 1245221, 0, 262145, 1245222, 0, 262145, 1245223, 0, 262145, 1245224, 0, 262145, 1245225, 0, 262145, 1245226, 0, 262145, 1245227, 0, 262145, 1245228, 0, 262145, 1245229, 0, 262145, 1245230, 0, 262145, 1245231, 0, 262145, 1245232, 0, 262145, 1245233, 0, 262145, 1245234, 0, 262145, 1245235, 0, 262145, 1245236, 0, 262145, 1245237, 0, 262145, 1245238, 0, 262145, 1245239, 0, 262145, 1245240, 0, 262145, 1245241, 0, 262145, 1245242, 0, 262145, 1310721, 0, 262145, 1310722, 0, 262145, 1310723, 0, 262145, 1310724, 0, 262145, 1310725, 0, 262145, 1310726, 0, 262145, 1310727, 0, 262145, 1310728, 0, 262145, 1310729, 0, 262145, 1310730, 0, 262145, 1310731, 0, 262145, 1310732, 0, 262145, 1310733, 0, 262145, 1310734, 0, 262145, 1310735, 0, 262145, 1310736, 0, 262145, 1310737, 0, 262145, 1310738, 0, 262145, 1310739, 0, 262145, 1310740, 0, 262145, 1310741, 0, 262145, 1310742, 0, 262145, 1310743, 0, 262145, 1310744, 0, 262145, 1310745, 0, 262145, 1310746, 0, 262145, 1310747, 0, 262145, 1310748, 0, 262145, 1310749, 0, 262145, 1310750, 0, 262145, 1310751, 0, 262145, 1310752, 0, 262145, 1310753, 0, 262145, 1310754, 0, 262145, 1310755, 0, 262145, 1310756, 0, 262145, 1310757, 0, 262145, 1310758, 0, 262145, 1310759, 0, 262145, 1310760, 0, 262145, 1310761, 0, 262145, 1310762, 0, 262145, 1310763, 0, 262145, 1310764, 0, 262145, 1310765, 0, 262145, 1310766, 0, 262145, 1310767, 0, 262145, 1310768, 0, 262145, 1310769, 0, 262145, 1310770, 0, 262145, 1310771, 0, 262145, 1310772, 0, 262145, 1310773, 0, 262145, 1310774, 0, 262145, 1310775, 0, 262145, 1310776, 0, 262145, 1310777, 0, 262145, 1310778, 0, 262145, 1376257, 0, 262145, 1376258, 0, 262145, 1376259, 0, 262145, 1376260, 0, 262145, 1376261, 0, 262145, 1376262, 0, 262145, 1376263, 0, 262145, 1376264, 0, 262145, 1376265, 0, 262145, 1376266, 0, 262145, 1376267, 0, 262145, 1376268, 0, 262145, 1376269, 0, 262145, 1376270, 0, 262145, 1376271, 0, 262145, 1376272, 0, 262145, 1376273, 0, 262145, 1376274, 0, 262145, 1376275, 0, 262145, 1376276, 0, 262145, 1376277, 0, 262145, 1376278, 0, 262145, 1376279, 0, 262145, 1376280, 0, 262145, 1376281, 0, 262145, 1376282, 0, 262145, 1376283, 0, 262145, 1376284, 0, 262145, 1376285, 0, 262145, 1376286, 0, 262145, 1376287, 0, 262145, 1376288, 0, 262145, 1376289, 0, 262145, 1376290, 0, 262145, 1376291, 0, 262145, 1376292, 0, 262146, 1376293, 0, 262145, 1376294, 0, 262145, 1376295, 0, 262145, 1376296, 0, 262145, 1376297, 0, 262145, 1376298, 0, 262145, 1376299, 0, 262145, 1376300, 0, 262145, 1376301, 0, 262145, 1376302, 0, 262147, 1376303, 0, 262147, 1376304, 0, 262147, 1376305, 0, 262147, 1376306, 0, 262147, 1376307, 0, 262147, 1376308, 0, 262147, 1376309, 0, 262145, 1376310, 0, 262145, 1376311, 0, 262145, 1376312, 0, 262145, 1376313, 0, 262145, 1376314, 0, 262145, 1441793, 0, 262145, 1441794, 0, 262145, 1441795, 0, 262145, 1441796, 0, 262145, 1441797, 0, 327683, 1441798, 0, 327681, 1441799, 0, 262145, 1441800, 0, 262145, 1441801, 0, 262145, 1441802, 0, 262145, 1441803, 0, 262145, 1441804, 0, 262145, 1441805, 0, 262145, 1441806, 0, 262145, 1441807, 0, 262145, 1441808, 0, 262145, 1441809, 0, 262145, 1441810, 0, 262145, 1441811, 0, 262145, 1441812, 0, 262145, 1441813, 0, 262145, 1441814, 0, 262145, 1441815, 0, 262145, 1441816, 0, 262145, 1441817, 0, 262145, 1441818, 0, 262145, 1441819, 0, 262145, 1441820, 0, 262145, 1441821, 0, 524290, 1441822, 0, 524291, 1441823, 0, 262145, 1441824, 0, 262145, 1441825, 0, 262145, 1441826, 0, 262145, 1441827, 0, 262146, 1441828, 0, 262146, 1441829, 0, 262145, 1441830, 0, 262145, 1441831, 0, 262145, 1441832, 0, 262145, 1441833, 0, 262146, 1441834, 0, 262145, 1441835, 0, 262145, 1441836, 0, 262145, 1441837, 0, 262145, 1441838, 0, 262147, 1441839, 0, 262147, 1441840, 0, 262145, 1441841, 0, 262146, 1441842, 0, 262146, 1441843, 0, 262145, 1441844, 0, 262147, 1441845, 0, 262147, 1441846, 0, 262146, 1441847, 0, 262145, 1441848, 0, 262145, 1441849, 0, 262145, 1441850, 0, 262145, 1507329, 0, 262145, 1507330, 0, 262145, 1507331, 0, 262145, 1507332, 0, 262145, 1507333, 0, 393217, 1507334, 0, 393218, 1507335, 0, 262145, 1507336, 0, 262145, 1507337, 0, 262145, 1507338, 0, 262145, 1507339, 0, 262145, 1507340, 0, 262145, 1507341, 0, 262145, 1507342, 0, 262145, 1507343, 0, 262145, 1507344, 0, 262145, 1507345, 0, 262145, 1507346, 0, 262145, 1507347, 0, 262145, 1507348, 0, 262145, 1507349, 0, 262145, 1507350, 0, 262145, 1507351, 0, 262145, 1507352, 0, 262145, 1507353, 0, 262145, 1507354, 0, 262145, 1507355, 0, 262145, 1507356, 0, 262145, 1507359, 0, 262145, 1507360, 0, 262145, 1507361, 0, 262145, 1507362, 0, 262145, 1507363, 0, 262146, 1507364, 0, 262145, 1507365, 0, 262145, 1507366, 0, 262145, 1507367, 0, 262146, 1507368, 0, 262146, 1507369, 0, 262145, 1507370, 0, 262146, 1507371, 0, 262145, 1507372, 0, 262145, 1507373, 0, 262145, 1507374, 0, 262147, 1507375, 0, 262147, 1507376, 0, 262147, 1507377, 0, 262147, 1507378, 0, 262146, 1507379, 0, 262145, 1507380, 0, 262145, 1507381, 0, 327682, 1507382, 0, 262147, 1507383, 0, 262145, 1507384, 0, 262145, 1507385, 0, 262145, 1507386, 0, 262145, 1572865, 0, 262145, 1572866, 0, 262145, 1572867, 0, 262145, 1572868, 0, 262145, 1572869, 0, 262145, 1572870, 0, 262145, 1572871, 0, 262145, 1572872, 0, 262145, 1572873, 0, 262145, 1572874, 0, 262145, 1572875, 0, 262145, 1572876, 0, 262145, 1572877, 0, 262145, 1572878, 0, 262145, 1572879, 0, 262145, 1572880, 0, 262145, 1572881, 0, 262145, 1572882, 0, 262145, 1572883, 0, 262145, 1572884, 0, 262145, 1572885, 0, 262145, 1572886, 0, 262145, 1572887, 0, 262145, 1572888, 0, 262145, 1572889, 0, 262145, 1572890, 0, 262145, 1572891, 0, 262145, 1572892, 0, 262145, 1572895, 0, 262145, 1572896, 0, 262145, 1572897, 0, 262145, 1572898, 0, 262145, 1572899, 0, 262146, 1572900, 0, 262146, 1572901, 0, 262146, 1572902, 0, 262147, 1572903, 0, 262145, 1572904, 0, 262147, 1572905, 0, 262145, 1572906, 0, 262146, 1572907, 0, 262146, 1572908, 0, 262147, 1572909, 0, 262147, 1572910, 0, 262146, 1572911, 0, 262145, 1572912, 0, 262145, 1572913, 0, 262146, 1572914, 0, 262145, 1572915, 0, 262145, 1572916, 0, 262145, 1572917, 0, 262145, 1572918, 0, 262147, 1572919, 0, 262146, 1572920, 0, 262145, 1572921, 0, 262145, 1572922, 0, 262145, 1638401, 0, 262145, 1638402, 0, 262145, 1638403, 0, 262145, 1638404, 0, 262145, 1638405, 0, 262145, 1638406, 0, 262145, 1638407, 0, 262145, 1638408, 0, 262145, 1638409, 0, 262145, 1638410, 0, 262145, 1638411, 0, 262145, 1638412, 0, 262145, 1638413, 0, 262145, 1638414, 0, 262145, 1638415, 0, 262145, 1638416, 0, 262145, 1638417, 0, 262145, 1638418, 0, 262145, 1638419, 0, 262145, 1638420, 0, 262145, 1638421, 0, 262145, 1638422, 0, 262145, 1638423, 0, 262145, 1638424, 0, 262145, 1638425, 0, 262145, 1638426, 0, 262145, 1638427, 0, 262145, 1638428, 0, 262145, 1638431, 0, 262145, 1638432, 0, 262145, 1638433, 0, 262145, 1638434, 0, 262145, 1638435, 0, 262145, 1638436, 0, 262145, 1638437, 0, 262147, 1638438, 0, 262145, 1638439, 0, 262145, 1638440, 0, 262147, 1638441, 0, 262147, 1638442, 0, 262145, 1638443, 0, 262147, 1638444, 0, 262147, 1638445, 0, 327682, 1638446, 0, 327682, 1638447, 0, 262146, 1638448, 0, 262146, 1638449, 0, 262145, 1638450, 0, 262145, 1638451, 0, 262145, 1638452, 0, 262145, 1638453, 0, 262145, 1638454, 0, 262147, 1638455, 0, 262147, 1638456, 0, 262145, 1638457, 0, 262145, 1638458, 0, 262145, 1703937, 0, 262145, 1703938, 0, 262145, 1703939, 0, 262145, 1703940, 0, 262145, 1703941, 0, 262145, 1703942, 0, 262145, 1703943, 0, 262145, 1703944, 0, 262145, 1703945, 0, 262145, 1703946, 0, 262145, 1703947, 0, 262145, 1703948, 0, 262145, 1703949, 0, 262145, 1703950, 0, 262145, 1703951, 0, 262145, 1703952, 0, 262145, 1703953, 0, 262145, 1703954, 0, 262145, 1703955, 0, 262145, 1703956, 0, 262145, 1703957, 0, 262145, 1703958, 0, 262145, 1703959, 0, 262145, 1703960, 0, 262145, 1703961, 0, 262145, 1703962, 0, 262145, 1703963, 0, 262145, 1703964, 0, 262145, 1703967, 0, 262145, 1703968, 0, 262145, 1703969, 0, 262145, 1703970, 0, 262145, 1703971, 0, 262145, 1703972, 0, 262145, 1703973, 0, 262147, 1703974, 0, 262145, 1703975, 0, 262145, 1703976, 0, 262145, 1703977, 0, 262147, 1703978, 0, 327683, 1703979, 0, 327681, 1703980, 0, 327682, 1703981, 0, 327682, 1703982, 0, 262146, 1703983, 0, 262146, 1703984, 0, 262145, 1703985, 0, 262145, 1703986, 0, 262145, 1703987, 0, 262145, 1703988, 0, 262145, 1703989, 0, 262146, 1703990, 0, 262147, 1703991, 0, 262147, 1703992, 0, 262145, 1703993, 0, 262145, 1703994, 0, 262145, 1769473, 0, 262145, 1769474, 0, 262145, 1769475, 0, 262145, 1769476, 0, 262145, 1769477, 0, 262145, 1769478, 0, 262145, 1769479, 0, 262145, 1769480, 0, 262145, 1769481, 0, 262145, 1769482, 0, 262145, 1769483, 0, 262145, 1769484, 0, 262145, 1769485, 0, 262145, 1769486, 0, 262145, 1769487, 0, 262145, 1769488, 0, 262145, 1769489, 0, 262145, 1769490, 0, 262145, 1769491, 0, 262145, 1769492, 0, 262145, 1769493, 0, 262145, 1769494, 0, 262145, 1769495, 0, 262145, 1769496, 0, 262145, 1769497, 0, 262145, 1769498, 0, 262145, 1769499, 0, 262145, 1769500, 0, 262145, 1769503, 0, 262145, 1769504, 0, 262145, 1769505, 0, 262145, 1769506, 0, 262145, 1769507, 0, 262145, 1769508, 0, 262145, 1769509, 0, 262147, 1769510, 0, 327682, 1769511, 0, 327682, 1769512, 0, 262145, 1769513, 0, 262147, 1769514, 0, 393217, 1769515, 0, 393218, 1769516, 0, 262146, 1769517, 0, 262146, 1769518, 0, 262145, 1769519, 0, 262145, 1769520, 0, 262146, 1769521, 0, 262146, 1769522, 0, 262146, 1769523, 0, 262146, 1769524, 0, 262146, 1769525, 0, 262147, 1769526, 0, 262147, 1769527, 0, 262146, 1769528, 0, 262145, 1769529, 0, 262145, 1769530, 0, 262145, 1835009, 0, 262145, 1835010, 0, 262145, 1835011, 0, 262145, 1835012, 0, 262145, 1835013, 0, 262145, 1835014, 0, 262145, 1835015, 0, 262145, 1835016, 0, 262145, 1835017, 0, 262145, 1835018, 0, 262145, 1835019, 0, 262145, 1835020, 0, 262145, 1835021, 0, 262145, 1835022, 0, 262145, 1835023, 0, 262145, 1835024, 0, 262145, 1835025, 0, 262145, 1835026, 0, 262145, 1835027, 0, 262145, 1835028, 0, 262145, 1835029, 0, 262145, 1835030, 0, 262145, 1835031, 0, 262145, 1835032, 0, 262145, 1835033, 0, 262145, 1835034, 0, 262145, 1835035, 0, 262145, 1835036, 0, 262145, 1835039, 0, 262145, 1835040, 0, 262145, 1835041, 0, 262145, 1835042, 0, 262145, 1835043, 0, 262145, 1835044, 0, 262147, 1835045, 0, 262147, 1835046, 0, 262146, 1835047, 0, 262146, 1835048, 0, 262146, 1835049, 0, 262146, 1835050, 0, 262146, 1835051, 0, 262146, 1835052, 0, 262146, 1835053, 0, 262146, 1835054, 0, 262146, 1835055, 0, 262146, 1835056, 0, 262146, 1835057, 0, 262146, 1835058, 0, 262147, 1835059, 0, 262147, 1835060, 0, 262147, 1835061, 0, 262147, 1835062, 0, 262147, 1835063, 0, 262146, 1835064, 0, 262145, 1835065, 0, 262145, 1835066, 0, 262145, 1900545, 0, 262145, 1900546, 0, 262145, 1900547, 0, 262145, 1900548, 0, 262145, 1900549, 0, 262145, 1900550, 0, 262145, 1900551, 0, 262145, 1900552, 0, 262145, 1900553, 0, 262145, 1900554, 0, 262145, 1900555, 0, 262145, 1900556, 0, 262145, 1900557, 0, 262145, 1900558, 0, 262145, 1900559, 0, 262145, 1900560, 0, 262145, 1900561, 0, 262145, 1900562, 0, 262145, 1900563, 0, 262145, 1900564, 0, 262145, 1900565, 0, 262145, 1900566, 0, 262145, 1900567, 0, 327683, 1900568, 0, 327681, 1900569, 0, 262145, 1900570, 0, 262145, 1900571, 0, 262145, 1900572, 0, 262145, 1900575, 0, 262145, 1900576, 0, 262145, 1900577, 0, 262145, 1900578, 0, 262145, 1900579, 0, 262145, 1900580, 0, 262147, 1900581, 0, 262145, 1900582, 0, 262145, 1900583, 0, 262145, 1900584, 0, 262145, 1900585, 0, 262145, 1900586, 0, 262145, 1900587, 0, 262145, 1900588, 0, 262146, 1900589, 0, 262146, 1900590, 0, 262145, 1900591, 0, 262145, 1900592, 0, 262147, 1900593, 0, 262145, 1900594, 0, 262145, 1900595, 0, 262145, 1900596, 0, 262145, 1900597, 0, 262145, 1900598, 0, 262145, 1900599, 0, 262147, 1900600, 0, 262147, 1900601, 0, 262145, 1900602, 0, 262145, 1966081, 0, 262145, 1966082, 0, 262145, 1966083, 0, 262145, 1966084, 0, 262145, 1966085, 0, 262145, 1966086, 0, 262145, 1966087, 0, 262145, 1966088, 0, 262145, 1966089, 0, 262145, 1966090, 0, 262145, 1966091, 0, 262145, 1966092, 0, 262145, 1966093, 0, 262145, 1966094, 0, 262145, 1966095, 0, 262145, 1966096, 0, 262145, 1966097, 0, 262145, 1966098, 0, 262145, 1966099, 0, 262145, 1966100, 0, 262145, 1966101, 0, 262145, 1966102, 0, 262145, 1966103, 0, 393217, 1966104, 0, 393218, 1966105, 0, 262145, 1966106, 0, 262145, 1966107, 0, 262145, 1966108, 0, 262145, 1966111, 0, 262145, 1966112, 0, 262145, 1966113, 0, 262145, 1966114, 0, 262145, 1966115, 0, 262145, 1966116, 0, 262147, 1966117, 0, 262147, 1966118, 0, 262147, 1966119, 0, 262147, 1966120, 0, 262147, 1966121, 0, 262147, 1966122, 0, 262147, 1966123, 0, 262147, 1966124, 0, 262147, 1966125, 0, 262147, 1966126, 0, 262147, 1966127, 0, 262147, 1966128, 0, 262145, 1966129, 0, 262145, 1966130, 0, 262145, 1966131, 0, 262145, 1966132, 0, 262145, 1966133, 0, 262145, 1966134, 0, 262147, 1966135, 0, 262147, 1966136, 0, 262145, 1966137, 0, 262145, 1966138, 0, 262145, 2031617, 0, 262146, 2031618, 0, 262146, 2031619, 0, 262146, 2031620, 0, 262145, 2031621, 0, 262145, 2031622, 0, 262145, 2031623, 0, 262145, 2031624, 0, 262145, 2031625, 0, 262145, 2031626, 0, 262145, 2031627, 0, 262145, 2031628, 0, 262145, 2031629, 0, 262145, 2031630, 0, 262145, 2031631, 0, 262145, 2031632, 0, 262145, 2031633, 0, 262145, 2031634, 0, 262145, 2031635, 0, 262145, 2031636, 0, 262145, 2031637, 0, 262145, 2031638, 0, 262145, 2031639, 0, 262145, 2031640, 0, 262145, 2031641, 0, 262145, 2031642, 0, 262145, 2031643, 0, 262145, 2031644, 0, 262145, 2031647, 0, 262145, 2031648, 0, 262145, 2031649, 0, 262145, 2031650, 0, 262145, 2031651, 0, 262145, 2031652, 0, 262145, 2031653, 0, 262145, 2031654, 0, 262145, 2031655, 0, 262145, 2031656, 0, 262145, 2031657, 0, 262145, 2031658, 0, 262145, 2031659, 0, 262145, 2031660, 0, 262145, 2031661, 0, 262145, 2031662, 0, 262145, 2031663, 0, 262145, 2031664, 0, 262145, 2031665, 0, 262145, 2031666, 0, 262145, 2031667, 0, 262145, 2031668, 0, 262145, 2031669, 0, 262145, 2031670, 0, 262145, 2031671, 0, 262145, 2031672, 0, 262145, 2031673, 0, 262145, 2031674, 0, 262145, 2097152, 0, 589824, 2097153, 0, 65538, 2097154, 0, 262145, 2097155, 0, 262145, 2097156, 0, 65538, 2097157, 0, 65538, 2097158, 0, 65538, 2097159, 0, 65538, 2097160, 0, 65538, 2097161, 0, 65538, 2097162, 0, 65538, 2097163, 0, 65538, 2097164, 0, 65538, 2097165, 0, 65538, 2097166, 0, 65538, 2097167, 0, 65538, 2097168, 0, 65538, 2097169, 0, 65538, 2097170, 0, 65538, 2097171, 0, 65538, 2097172, 0, 65538, 2097173, 0, 65538, 2097174, 0, 65538, 2097175, 0, 65538, 2097176, 0, 65538, 2097177, 0, 65538, 2097178, 0, 65538, 2097179, 0, 65538, 2097180, 0, 65538, 2097181, 0, 589825, 2097182, 0, 589824, 2097183, 0, 65538, 2097184, 0, 65538, 2097185, 0, 65538, 2097186, 0, 65538, 2097187, 0, 65538, 2097188, 0, 65538, 2097189, 0, 65538, 2097190, 0, 65538, 2097191, 0, 65538, 2097192, 0, 65538, 2097193, 0, 65538, 2097194, 0, 65538, 2097195, 0, 65538, 2097196, 0, 65538, 2097197, 0, 65538, 2097198, 0, 65538, 2097199, 0, 65538, 2097200, 0, 65538, 2097201, 0, 65538, 2097202, 0, 65538, 2097203, 0, 65538, 2097204, 0, 65538, 2097205, 0, 65538, 2097206, 0, 65538, 2097207, 0, 65538, 2097208, 0, 65538, 2097209, 0, 65538, 2097210, 0, 65538, 2097211, 0, 589825, 2162690, 0, 262145, 2162691, 0, 262145, 2228226, 0, 262145, 2228227, 0, 262145, 2293761, 0, 65539, 2293762, 0, 262145, 2293763, 0, 262145, 2293764, 0, 65537, 2293765, 0, 65538, 2293766, 0, 65538, 2293767, 0, 65538, 2293768, 0, 65538, 2293769, 0, 65538, 2293770, 0, 65538, 2293771, 0, 65538, 2293772, 0, 65538, 2293773, 0, 65538, 2293774, 0, 65538, 2293775, 0, 65538, 2293776, 0, 65538, 2293777, 0, 65538, 2293778, 0, 65538, 2293779, 0, 65538, 2293780, 0, 65538, 2293781, 0, 65538, 2293782, 0, 65538, 2293783, 0, 65538, 2293784, 0, 65538, 2293785, 0, 65538, 2293786, 0, 65538, 2293787, 0, 65538, 2293788, 0, 65539, 2293791, 0, 65537, 2293792, 0, 65538, 2293793, 0, 65538, 2293794, 0, 65538, 2293795, 0, 65538, 2293796, 0, 65538, 2293797, 0, 65538, 2293798, 0, 65538, 2293799, 0, 65538, 2293800, 0, 65538, 2293801, 0, 65538, 2293802, 0, 65538, 2293803, 0, 65538, 2293804, 0, 65538, 2293805, 0, 65538, 2293806, 0, 65538, 2293807, 0, 65538, 2293808, 0, 65538, 2293809, 0, 65538, 2293810, 0, 65538, 2293811, 0, 65538, 2293812, 0, 65538, 2293813, 0, 65538, 2293814, 0, 65538, 2293815, 0, 65538, 2293816, 0, 65538, 2293817, 0, 65538, 2293818, 0, 65539, 2359297, 0, 262145, 2359298, 0, 262145, 2359299, 0, 262145, 2359300, 0, 262145, 2359301, 0, 262145, 2359302, 0, 262145, 2359303, 0, 262145, 2359304, 0, 262145, 2359305, 0, 262145, 2359306, 0, 262145, 2359307, 0, 262145, 2359308, 0, 262145, 2359309, 0, 262145, 2359310, 0, 262145, 2359311, 0, 262145, 2359312, 0, 262145, 2359313, 0, 262145, 2359314, 0, 262145, 2359315, 0, 262145, 2359316, 0, 262145, 2359317, 0, 262145, 2359318, 0, 262145, 2359319, 0, 262145, 2359320, 0, 262145, 2359321, 0, 262145, 2359322, 0, 262145, 2359323, 0, 262145, 2359324, 0, 262145, 2359327, 0, 262145, 2359328, 0, 262145, 2359329, 0, 262145, 2359330, 0, 262145, 2359331, 0, 262145, 2359332, 0, 262145, 2359333, 0, 262145, 2359334, 0, 262145, 2359335, 0, 262145, 2359336, 0, 262145, 2359337, 0, 262145, 2359338, 0, 262145, 2359339, 0, 262145, 2359340, 0, 262145, 2359341, 0, 262145, 2359342, 0, 262145, 2359343, 0, 262145, 2359344, 0, 262145, 2359345, 0, 262145, 2359346, 0, 262145, 2359347, 0, 262145, 2359348, 0, 262145, 2359349, 0, 262145, 2359350, 0, 262145, 2359351, 0, 262145, 2359352, 0, 262145, 2359353, 0, 262145, 2359354, 0, 262145, 2424833, 0, 262145, 2424834, 0, 262145, 2424835, 0, 262145, 2424836, 0, 262145, 2424837, 0, 262145, 2424838, 0, 262145, 2424839, 0, 262145, 2424840, 0, 262145, 2424841, 0, 262145, 2424842, 0, 262145, 2424843, 0, 262145, 2424844, 0, 262145, 2424845, 0, 327683, 2424846, 0, 327681, 2424847, 0, 262145, 2424848, 0, 262145, 2424849, 0, 262145, 2424850, 0, 262145, 2424851, 0, 262145, 2424852, 0, 262145, 2424853, 0, 262145, 2424854, 0, 262145, 2424855, 0, 262145, 2424856, 0, 262145, 2424857, 0, 262145, 2424858, 0, 262145, 2424859, 0, 262145, 2424860, 0, 262145, 2424863, 0, 262145, 2424864, 0, 262145, 2424865, 0, 262145, 2424866, 0, 327683, 2424867, 0, 327681, 2424868, 0, 262145, 2424869, 0, 262145, 2424870, 0, 262145, 2424871, 0, 262145, 2424872, 0, 262145, 2424873, 0, 262145, 2424874, 0, 262145, 2424875, 0, 262145, 2424876, 0, 262145, 2424877, 0, 262145, 2424878, 0, 262145, 2424879, 0, 262145, 2424880, 0, 262145, 2424881, 0, 262145, 2424882, 0, 262145, 2424883, 0, 262145, 2424884, 0, 262145, 2424885, 0, 262145, 2424886, 0, 262145, 2424887, 0, 262145, 2424888, 0, 262145, 2424889, 0, 262145, 2424890, 0, 262145, 2490369, 0, 262145, 2490370, 0, 262145, 2490371, 0, 262145, 2490372, 0, 262145, 2490373, 0, 262145, 2490374, 0, 262145, 2490375, 0, 262145, 2490376, 0, 262145, 2490377, 0, 262145, 2490378, 0, 262145, 2490379, 0, 262145, 2490380, 0, 262145, 2490381, 0, 393217, 2490382, 0, 393218, 2490383, 0, 262145, 2490384, 0, 262145, 2490385, 0, 262145, 2490386, 0, 262145, 2490387, 0, 262145, 2490388, 0, 262145, 2490389, 0, 262145, 2490390, 0, 262145, 2490391, 0, 262145, 2490392, 0, 262145, 2490393, 0, 262145, 2490394, 0, 262145, 2490395, 0, 262145, 2490396, 0, 262145, 2490399, 0, 262145, 2490400, 0, 262145, 2490401, 0, 262145, 2490402, 0, 393217, 2490403, 0, 393218, 2490404, 0, 262145, 2490405, 0, 262145, 2490406, 0, 262145, 2490407, 0, 262145, 2490408, 0, 262145, 2490409, 0, 262145, 2490410, 0, 262145, 2490411, 0, 262145, 2490412, 0, 262145, 2490413, 0, 262145, 2490414, 0, 262145, 2490415, 0, 262145, 2490416, 0, 262145, 2490417, 0, 262145, 2490418, 0, 262145, 2490419, 0, 262145, 2490420, 0, 262145, 2490421, 0, 262145, 2490422, 0, 262145, 2490423, 0, 262145, 2490424, 0, 262145, 2490425, 0, 262145, 2490426, 0, 262145, 2555905, 0, 262145, 2555906, 0, 262145, 2555907, 0, 262145, 2555908, 0, 262145, 2555909, 0, 262145, 2555910, 0, 262145, 2555911, 0, 262145, 2555912, 0, 262145, 2555913, 0, 262145, 2555914, 0, 262145, 2555915, 0, 262145, 2555916, 0, 262145, 2555917, 0, 262145, 2555918, 0, 262145, 2555919, 0, 262145, 2555920, 0, 262145, 2555921, 0, 262145, 2555922, 0, 262145, 2555923, 0, 262145, 2555924, 0, 262145, 2555925, 0, 262145, 2555926, 0, 262145, 2555927, 0, 262145, 2555928, 0, 262145, 2555929, 0, 262145, 2555930, 0, 262145, 2555931, 0, 262145, 2555932, 0, 262145, 2555935, 0, 262145, 2555936, 0, 262145, 2555937, 0, 262145, 2555938, 0, 262145, 2555939, 0, 262145, 2555940, 0, 262145, 2555941, 0, 262145, 2555942, 0, 262145, 2555943, 0, 262145, 2555944, 0, 262145, 2555945, 0, 262145, 2555946, 0, 262145, 2555947, 0, 262145, 2555948, 0, 262145, 2555949, 0, 262145, 2555950, 0, 262145, 2555951, 0, 262145, 2555952, 0, 262145, 2555953, 0, 262145, 2555954, 0, 262145, 2555955, 0, 262145, 2555956, 0, 327683, 2555957, 0, 327681, 2555958, 0, 262145, 2555959, 0, 262145, 2555960, 0, 262145, 2555961, 0, 262145, 2555962, 0, 262145, 2621441, 0, 262145, 2621442, 0, 262145, 2621443, 0, 262145, 2621444, 0, 262145, 2621445, 0, 262145, 2621446, 0, 262145, 2621447, 0, 262145, 2621448, 0, 262145, 2621449, 0, 262145, 2621450, 0, 262145, 2621451, 0, 262145, 2621452, 0, 262145, 2621453, 0, 262145, 2621454, 0, 262145, 2621455, 0, 262145, 2621456, 0, 262145, 2621457, 0, 262145, 2621458, 0, 262145, 2621459, 0, 262145, 2621460, 0, 262145, 2621461, 0, 262145, 2621462, 0, 262145, 2621463, 0, 262145, 2621464, 0, 262145, 2621465, 0, 262145, 2621466, 0, 262145, 2621467, 0, 262145, 2621468, 0, 262145, 2621471, 0, 262145, 2621472, 0, 262145, 2621473, 0, 262145, 2621474, 0, 262145, 2621475, 0, 262145, 2621476, 0, 262145, 2621477, 0, 262145, 2621478, 0, 262145, 2621479, 0, 262145, 2621480, 0, 262145, 2621481, 0, 262145, 2621482, 0, 262145, 2621483, 0, 262145, 2621484, 0, 262145, 2621485, 0, 262145, 2621486, 0, 262145, 2621487, 0, 262145, 2621488, 0, 262145, 2621489, 0, 262145, 2621490, 0, 262145, 2621491, 0, 262145, 2621492, 0, 393217, 2621493, 0, 393218, 2621494, 0, 262145, 2621495, 0, 262145, 2621496, 0, 262145, 2621497, 0, 262145, 2621498, 0, 262145, 2686977, 0, 262145, 2686978, 0, 262145, 2686979, 0, 262145, 2686980, 0, 262145, 2686981, 0, 262145, 2686982, 0, 262145, 2686983, 0, 262145, 2686984, 0, 262145, 2686985, 0, 262145, 2686986, 0, 262145, 2686987, 0, 262145, 2686988, 0, 262145, 2686989, 0, 262145, 2686990, 0, 262145, 2686991, 0, 262145, 2686992, 0, 262145, 2686993, 0, 262145, 2686994, 0, 262145, 2686995, 0, 262145, 2686996, 0, 262145, 2686997, 0, 262145, 2686998, 0, 262145, 2686999, 0, 262145, 2687000, 0, 262145, 2687001, 0, 262145, 2687002, 0, 262145, 2687003, 0, 262145, 2687004, 0, 262145, 2687007, 0, 262145, 2687008, 0, 262145, 2687009, 0, 262145, 2687010, 0, 262145, 2687011, 0, 262145, 2687012, 0, 262145, 2687013, 0, 262145, 2687014, 0, 262145, 2687015, 0, 262145, 2687016, 0, 262145, 2687017, 0, 262145, 2687018, 0, 262145, 2687019, 0, 262145, 2687020, 0, 262145, 2687021, 0, 262145, 2687022, 0, 262145, 2687023, 0, 262145, 2687024, 0, 262145, 2687025, 0, 262145, 2687026, 0, 262145, 2687027, 0, 262145, 2687028, 0, 262145, 2687029, 0, 262145, 2687030, 0, 262145, 2687031, 0, 262145, 2687032, 0, 262145, 2687033, 0, 262145, 2687034, 0, 262145, 2752513, 0, 262145, 2752514, 0, 262145, 2752515, 0, 262145, 2752516, 0, 262145, 2752517, 0, 262145, 2752518, 0, 262145, 2752519, 0, 262145, 2752520, 0, 262145, 2752521, 0, 262145, 2752522, 0, 262145, 2752523, 0, 262145, 2752524, 0, 262145, 2752525, 0, 262145, 2752526, 0, 262145, 2752527, 0, 262145, 2752528, 0, 262145, 2752529, 0, 262145, 2752530, 0, 262145, 2752531, 0, 262145, 2752532, 0, 262145, 2752533, 0, 262145, 2752534, 0, 262145, 2752535, 0, 262145, 2752536, 0, 262145, 2752537, 0, 262145, 2752538, 0, 262145, 2752539, 0, 262145, 2752540, 0, 262145, 2752543, 0, 262145, 2752544, 0, 262145, 2752545, 0, 262145, 2752546, 0, 262145, 2752547, 0, 262145, 2752548, 0, 262145, 2752549, 0, 327683, 2752550, 0, 327681, 2752551, 0, 262145, 2752552, 0, 262145, 2752553, 0, 262145, 2752554, 0, 262145, 2752555, 0, 262145, 2752556, 0, 262145, 2752557, 0, 262145, 2752558, 0, 262145, 2752559, 0, 262145, 2752560, 0, 262145, 2752561, 0, 262145, 2752562, 0, 262145, 2752563, 0, 262145, 2752564, 0, 262145, 2752565, 0, 262145, 2752566, 0, 262145, 2752567, 0, 262145, 2752568, 0, 262145, 2752569, 0, 262145, 2752570, 0, 262145, 2818049, 0, 262145, 2818050, 0, 262145, 2818051, 0, 262145, 2818052, 0, 262145, 2818053, 0, 262145, 2818054, 0, 262145, 2818055, 0, 262145, 2818056, 0, 262145, 2818057, 0, 262145, 2818058, 0, 262145, 2818059, 0, 262145, 2818060, 0, 262145, 2818061, 0, 262145, 2818062, 0, 262145, 2818063, 0, 262145, 2818064, 0, 262145, 2818065, 0, 262145, 2818066, 0, 262145, 2818067, 0, 262145, 2818068, 0, 262145, 2818069, 0, 262145, 2818070, 0, 262145, 2818071, 0, 262145, 2818072, 0, 262145, 2818073, 0, 262145, 2818074, 0, 262145, 2818075, 0, 262145, 2818076, 0, 262145, 2818079, 0, 262145, 2818080, 0, 262145, 2818081, 0, 262145, 2818082, 0, 262145, 2818083, 0, 262145, 2818084, 0, 262145, 2818085, 0, 393217, 2818086, 0, 393218, 2818087, 0, 262145, 2818088, 0, 262145, 2818089, 0, 262145, 2818090, 0, 262145, 2818091, 0, 262145, 2818092, 0, 262145, 2818093, 0, 262145, 2818094, 0, 262145, 2818095, 0, 262145, 2818096, 0, 262145, 2818097, 0, 262145, 2818098, 0, 262145, 2818099, 0, 262145, 2818100, 0, 262145, 2818101, 0, 262145, 2818102, 0, 262145, 2818103, 0, 262145, 2818104, 0, 262145, 2818105, 0, 262145, 2818106, 0, 262145, 2883585, 0, 262145, 2883586, 0, 262145, 2883587, 0, 262145, 2883588, 0, 262145, 2883589, 0, 262145, 2883590, 0, 262145, 2883591, 0, 262145, 2883592, 0, 262145, 2883593, 0, 262145, 2883594, 0, 262145, 2883595, 0, 262145, 2883596, 0, 262145, 2883597, 0, 262145, 2883598, 0, 262145, 2883599, 0, 262145, 2883600, 0, 327683, 2883601, 0, 327681, 2883602, 0, 262145, 2883603, 0, 262145, 2883604, 0, 262145, 2883605, 0, 262145, 2883606, 0, 262145, 2883607, 0, 262145, 2883608, 0, 262145, 2883609, 0, 262145, 2883610, 0, 262145, 2883611, 0, 262145, 2883612, 0, 262145, 2883615, 0, 262145, 2883616, 0, 262145, 2883617, 0, 262145, 2883618, 0, 262145, 2883619, 0, 262145, 2883620, 0, 262145, 2883621, 0, 262145, 2883622, 0, 262145, 2883623, 0, 262145, 2883624, 0, 262145, 2883625, 0, 262145, 2883626, 0, 262145, 2883627, 0, 262145, 2883628, 0, 262145, 2883629, 0, 262145, 2883630, 0, 262145, 2883631, 0, 262145, 2883632, 0, 262145, 2883633, 0, 262145, 2883634, 0, 262145, 2883635, 0, 262145, 2883636, 0, 262145, 2883637, 0, 262145, 2883638, 0, 262145, 2883639, 0, 262145, 2883640, 0, 262145, 2883641, 0, 262145, 2883642, 0, 262145, 2949121, 0, 262145, 2949122, 0, 262145, 2949123, 0, 262145, 2949124, 0, 262145, 2949125, 0, 262145, 2949126, 0, 262145, 2949127, 0, 262145, 2949128, 0, 262145, 2949129, 0, 262145, 2949130, 0, 262145, 2949131, 0, 262145, 2949132, 0, 262145, 2949133, 0, 262145, 2949134, 0, 262145, 2949135, 0, 262145, 2949136, 0, 393217, 2949137, 0, 393218, 2949138, 0, 262145, 2949139, 0, 262145, 2949140, 0, 262145, 2949141, 0, 262145, 2949142, 0, 262145, 2949143, 0, 262145, 2949144, 0, 262145, 2949145, 0, 262145, 2949146, 0, 262145, 2949147, 0, 262145, 2949148, 0, 262145, 2949149, 0, 65537, 2949150, 0, 65539, 2949151, 0, 262145, 2949152, 0, 262145, 2949153, 0, 262145, 2949154, 0, 262145, 2949155, 0, 262145, 2949156, 0, 262145, 2949157, 0, 262145, 2949158, 0, 262145, 2949159, 0, 262145, 2949160, 0, 262145, 2949161, 0, 262145, 2949162, 0, 262145, 2949163, 0, 262145, 2949164, 0, 262145, 2949165, 0, 262145, 2949166, 0, 262145, 2949167, 0, 262145, 2949168, 0, 262145, 2949169, 0, 262145, 2949170, 0, 262145, 2949171, 0, 262145, 2949172, 0, 262145, 2949173, 0, 262145, 2949174, 0, 262145, 2949175, 0, 262145, 2949176, 0, 262145, 2949177, 0, 262145, 2949178, 0, 262145, 3014657, 0, 262145, 3014658, 0, 262145, 3014659, 0, 262145, 3014660, 0, 262145, 3014661, 0, 262145, 3014662, 0, 262145, 3014663, 0, 262145, 3014664, 0, 262145, 3014665, 0, 262145, 3014666, 0, 262145, 3014667, 0, 262145, 3014668, 0, 262145, 3014669, 0, 262145, 3014670, 0, 262145, 3014671, 0, 262145, 3014672, 0, 262145, 3014673, 0, 262145, 3014674, 0, 262145, 3014675, 0, 262145, 3014676, 0, 262145, 3014677, 0, 262145, 3014678, 0, 262145, 3014679, 0, 262145, 3014680, 0, 262145, 3014681, 0, 262145, 3014682, 0, 262145, 3014683, 0, 262145, 3014684, 0, 262145, 3014685, 0, 262145, 3014686, 0, 262145, 3014687, 0, 262145, 3014688, 0, 262145, 3014689, 0, 262145, 3014690, 0, 262145, 3014691, 0, 262145, 3014692, 0, 262145, 3014693, 0, 262145, 3014694, 0, 262145, 3014695, 0, 262145, 3014696, 0, 262145, 3014697, 0, 262145, 3014698, 0, 262145, 3014699, 0, 262145, 3014700, 0, 262145, 3014701, 0, 262145, 3014702, 0, 262145, 3014703, 0, 262145, 3014704, 0, 262145, 3014705, 0, 262145, 3014706, 0, 262145, 3014707, 0, 262145, 3014708, 0, 262145, 3014709, 0, 262145, 3014710, 0, 262145, 3014711, 0, 262145, 3014712, 0, 262145, 3014713, 0, 262145, 3014714, 0, 262145, 3080193, 0, 262145, 3080194, 0, 262145, 3080195, 0, 262145, 3080196, 0, 327683, 3080197, 0, 327681, 3080198, 0, 262145, 3080199, 0, 262145, 3080200, 0, 262145, 3080201, 0, 262145, 3080202, 0, 262145, 3080203, 0, 262145, 3080204, 0, 262145, 3080205, 0, 262145, 3080206, 0, 262145, 3080207, 0, 262145, 3080208, 0, 262145, 3080209, 0, 262145, 3080210, 0, 262145, 3080211, 0, 262145, 3080212, 0, 262145, 3080213, 0, 262145, 3080214, 0, 262145, 3080215, 0, 262145, 3080216, 0, 262145, 3080217, 0, 262145, 3080218, 0, 262145, 3080219, 0, 262145, 3080220, 0, 262145, 3080221, 0, 262145, 3080222, 0, 262145, 3080223, 0, 262145, 3080224, 0, 262145, 3080225, 0, 262145, 3080226, 0, 262145, 3080227, 0, 262145, 3080228, 0, 262145, 3080229, 0, 262145, 3080230, 0, 262145, 3080231, 0, 262145, 3080232, 0, 262145, 3080233, 0, 262145, 3080234, 0, 262145, 3080235, 0, 262145, 3080236, 0, 262145, 3080237, 0, 327683, 3080238, 0, 327681, 3080239, 0, 262145, 3080240, 0, 262145, 3080241, 0, 262145, 3080242, 0, 262145, 3080243, 0, 262145, 3080244, 0, 262145, 3080245, 0, 262145, 3080246, 0, 262145, 3080247, 0, 327683, 3080248, 0, 327681, 3080249, 0, 262145, 3080250, 0, 262145, 3145729, 0, 262145, 3145730, 0, 262145, 3145731, 0, 262145, 3145732, 0, 393217, 3145733, 0, 393218, 3145734, 0, 262145, 3145735, 0, 262145, 3145736, 0, 262145, 3145737, 0, 262145, 3145738, 0, 262145, 3145739, 0, 262145, 3145740, 0, 262145, 3145741, 0, 262145, 3145742, 0, 262145, 3145743, 0, 262145, 3145744, 0, 262145, 3145745, 0, 262145, 3145746, 0, 262145, 3145747, 0, 262145, 3145748, 0, 262145, 3145749, 0, 262145, 3145750, 0, 262145, 3145751, 0, 262145, 3145752, 0, 262145, 3145753, 0, 262145, 3145754, 0, 262145, 3145755, 0, 262145, 3145756, 0, 262145, 3145757, 0, 65538, 3145758, 0, 65538, 3145759, 0, 262145, 3145760, 0, 262145, 3145761, 0, 262145, 3145762, 0, 262145, 3145763, 0, 262145, 3145764, 0, 262145, 3145765, 0, 262145, 3145766, 0, 262145, 3145767, 0, 262145, 3145768, 0, 262145, 3145769, 0, 262145, 3145770, 0, 262145, 3145771, 0, 262145, 3145772, 0, 262145, 3145773, 0, 393217, 3145774, 0, 393218, 3145775, 0, 262145, 3145776, 0, 262145, 3145777, 0, 262145, 3145778, 0, 262145, 3145779, 0, 262145, 3145780, 0, 262145, 3145781, 0, 262145, 3145782, 0, 262145, 3145783, 0, 262146, 3145784, 0, 262146, 3145785, 0, 262146, 3145786, 0, 262145, 3211264, 0, 589824, 3211265, 0, 65538, 3211266, 0, 65538, 3211267, 0, 65538, 3211268, 0, 65538, 3211269, 0, 65538, 3211270, 0, 65538, 3211271, 0, 65538, 3211272, 0, 65538, 3211273, 0, 65538, 3211274, 0, 65538, 3211275, 0, 65538, 3211276, 0, 65538, 3211277, 0, 65538, 3211278, 0, 65538, 3211279, 0, 65538, 3211280, 0, 65538, 3211281, 0, 65538, 3211282, 0, 65538, 3211283, 0, 65538, 3211284, 0, 65538, 3211285, 0, 65538, 3211286, 0, 65538, 3211287, 0, 65538, 3211288, 0, 65538, 3211289, 0, 65538, 3211290, 0, 65538, 3211291, 0, 65538, 3211292, 0, 65538, 3211293, 0, 589825, 3211294, 0, 589824, 3211295, 0, 65538, 3211296, 0, 65538, 3211297, 0, 65538, 3211298, 0, 65538, 3211299, 0, 65538, 3211300, 0, 65538, 3211301, 0, 65538, 3211302, 0, 65538, 3211303, 0, 65538, 3211304, 0, 65538, 3211305, 0, 65538, 3211306, 0, 65538, 3211307, 0, 65538, 3211308, 0, 65538, 3211309, 0, 65538, 3211310, 0, 65538, 3211311, 0, 65538, 3211312, 0, 65538, 3211313, 0, 65538, 3211314, 0, 65538, 3211315, 0, 65538, 3211316, 0, 65538, 3211317, 0, 65538, 3211318, 0, 65538, 3211319, 0, 65538, 3211320, 0, 262145, 3211321, 0, 262145, 3211322, 0, 65538, 3211323, 0, 589825, 3276856, 0, 262145, 3276857, 0, 262145, 3342392, 0, 262145, 3342393, 0, 262145, 3407884, 0, 65538, 3407885, 0, 65538, 3407886, 0, 65538, 3407887, 0, 65538, 3407888, 0, 65538, 3407903, 0, 65538, 3407904, 0, 65538, 3407905, 0, 65538, 3407906, 0, 65538, 3407907, 0, 65538, 3407908, 0, 65538, 3407909, 0, 65538, 3407910, 0, 65538, 3407911, 0, 65538, 3407912, 0, 65538, 3407913, 0, 65538, 3407914, 0, 65538, 3407915, 0, 65538, 3407916, 0, 65538, 3407917, 0, 65538, 3407918, 0, 65538, 3407919, 0, 65538, 3407920, 0, 65538, 3407921, 0, 65538, 3407922, 0, 65538, 3407923, 0, 65538, 3407924, 0, 65538, 3407925, 0, 65538, 3407926, 0, 65538, 3407927, 0, 65539, 3407928, 0, 262145, 3407929, 0, 262145, 3407930, 0, 65537, 3473420, 0, 262145, 3473421, 0, 262145, 3473422, 0, 262145, 3473423, 0, 262145, 3473424, 0, 262145, 3473439, 0, 262145, 3473440, 0, 262145, 3473441, 0, 262145, 3473442, 0, 262145, 3473443, 0, 262145, 3473444, 0, 262145, 3473445, 0, 262145, 3473446, 0, 262145, 3473447, 0, 262145, 3473448, 0, 262145, 3473449, 0, 262145, 3473450, 0, 262145, 3473451, 0, 262145, 3473452, 0, 262145, 3473453, 0, 262145, 3473454, 0, 262145, 3473455, 0, 262145, 3473456, 0, 262145, 3473457, 0, 262145, 3473458, 0, 262145, 3473459, 0, 262145, 3473460, 0, 262145, 3473461, 0, 262145, 3473462, 0, 262145, 3473463, 0, 262145, 3473464, 0, 262145, 3473465, 0, 262145, 3473466, 0, 262145, 3538956, 0, 262145, 3538957, 0, 262145, 3538958, 0, 262145, 3538959, 0, 262145, 3538960, 0, 262145, 3538975, 0, 262145, 3538976, 0, 262145, 3538977, 0, 262145, 3538978, 0, 262145, 3538979, 0, 262145, 3538980, 0, 262145, 3538981, 0, 262145, 3538982, 0, 262145, 3538983, 0, 262145, 3538984, 0, 262145, 3538985, 0, 262145, 3538986, 0, 262145, 3538987, 0, 262145, 3538988, 0, 262145, 3538989, 0, 262145, 3538990, 0, 262145, 3538991, 0, 262145, 3538992, 0, 262145, 3538993, 0, 262145, 3538994, 0, 262145, 3538995, 0, 262145, 3538996, 0, 262145, 3538997, 0, 262145, 3538998, 0, 262145, 3538999, 0, 262145, 3539000, 0, 262145, 3539001, 0, 262145, 3539002, 0, 262145, 3604492, 0, 262145, 3604493, 0, 262145, 3604494, 0, 262145, 3604495, 0, 262145, 3604496, 0, 262145, 3604511, 0, 262145, 3604512, 0, 262145, 3604513, 0, 262145, 3604514, 0, 262145, 3604515, 0, 262145, 3604516, 0, 262146, 3604517, 0, 262145, 3604518, 0, 262145, 3604519, 0, 262145, 3604520, 0, 262145, 3604521, 0, 262145, 3604522, 0, 262145, 3604523, 0, 262145, 3604524, 0, 262145, 3604525, 0, 262145, 3604526, 0, 262147, 3604527, 0, 262147, 3604528, 0, 262147, 3604529, 0, 262147, 3604530, 0, 262147, 3604531, 0, 262147, 3604532, 0, 262147, 3604533, 0, 262145, 3604534, 0, 262145, 3604535, 0, 262145, 3604536, 0, 262145, 3604537, 0, 262145, 3604538, 0, 262145, 3670028, 0, 262145, 3670029, 0, 262145, 3670030, 0, 262145, 3670031, 0, 262145, 3670032, 0, 262145, 3670047, 0, 262145, 3670048, 0, 262145, 3670049, 0, 262145, 3670050, 0, 262145, 3670051, 0, 262146, 3670052, 0, 262146, 3670053, 0, 262145, 3670054, 0, 262145, 3670055, 0, 262145, 3670056, 0, 262145, 3670057, 0, 262146, 3670058, 0, 262145, 3670059, 0, 262145, 3670060, 0, 262145, 3670061, 0, 262145, 3670062, 0, 262147, 3670063, 0, 262147, 3670064, 0, 262145, 3670065, 0, 262146, 3670066, 0, 262146, 3670067, 0, 262145, 3670068, 0, 262147, 3670069, 0, 262147, 3670070, 0, 262146, 3670071, 0, 262145, 3670072, 0, 262145, 3670073, 0, 262145, 3670074, 0, 262145, 3735564, 0, 262145, 3735565, 0, 262145, 3735566, 0, 262145, 3735567, 0, 262145, 3735568, 0, 262145, 3735583, 0, 262145, 3735584, 0, 262145, 3735585, 0, 262145, 3735586, 0, 262145, 3735587, 0, 262146, 3735588, 0, 262145, 3735589, 0, 262145, 3735590, 0, 262145, 3735591, 0, 262146, 3735592, 0, 262146, 3735593, 0, 262145, 3735594, 0, 262146, 3735595, 0, 262145, 3735596, 0, 262145, 3735597, 0, 262145, 3735598, 0, 262147, 3735599, 0, 262147, 3735600, 0, 262147, 3735601, 0, 262147, 3735602, 0, 262146, 3735603, 0, 262145, 3735604, 0, 262145, 3735605, 0, 327682, 3735606, 0, 262147, 3735607, 0, 262145, 3735608, 0, 262145, 3735609, 0, 262145, 3735610, 0, 262145, 3801100, 0, 262145, 3801101, 0, 262145, 3801102, 0, 262145, 3801103, 0, 262145, 3801104, 0, 262145, 3801119, 0, 262145, 3801120, 0, 262145, 3801121, 0, 262145, 3801122, 0, 262145, 3801123, 0, 262146, 3801124, 0, 262146, 3801125, 0, 262146, 3801126, 0, 262147, 3801127, 0, 262145, 3801128, 0, 262147, 3801129, 0, 262145, 3801130, 0, 262146, 3801131, 0, 262146, 3801132, 0, 262147, 3801133, 0, 262147, 3801134, 0, 262146, 3801135, 0, 262145, 3801136, 0, 262145, 3801137, 0, 262146, 3801138, 0, 262145, 3801139, 0, 262145, 3801140, 0, 262145, 3801141, 0, 262145, 3801142, 0, 262147, 3801143, 0, 262146, 3801144, 0, 262145, 3801145, 0, 262145, 3801146, 0, 262145, 3866636, 0, 262145, 3866637, 0, 262145, 3866638, 0, 262145, 3866639, 0, 262145, 3866640, 0, 262145, 3866655, 0, 262145, 3866656, 0, 262145, 3866657, 0, 262145, 3866658, 0, 262145, 3866659, 0, 262145, 3866660, 0, 262145, 3866661, 0, 262147, 3866662, 0, 262145, 3866663, 0, 262145, 3866664, 0, 262147, 3866665, 0, 262147, 3866666, 0, 262145, 3866667, 0, 262147, 3866668, 0, 262147, 3866669, 0, 327682, 3866670, 0, 327682, 3866671, 0, 262146, 3866672, 0, 262146, 3866673, 0, 262145, 3866674, 0, 262145, 3866675, 0, 262145, 3866676, 0, 262145, 3866677, 0, 262145, 3866678, 0, 262147, 3866679, 0, 262147, 3866680, 0, 262145, 3866681, 0, 262145, 3866682, 0, 262145, 3932172, 0, 262145, 3932173, 0, 262145, 3932174, 0, 262145, 3932175, 0, 262145, 3932176, 0, 262145, 3932191, 0, 262145, 3932192, 0, 262145, 3932193, 0, 262145, 3932194, 0, 262145, 3932195, 0, 262145, 3932196, 0, 262145, 3932197, 0, 262147, 3932198, 0, 262145, 3932199, 0, 262145, 3932200, 0, 262145, 3932201, 0, 262147, 3932202, 0, 327683, 3932203, 0, 327681, 3932204, 0, 327682, 3932205, 0, 327682, 3932206, 0, 262146, 3932207, 0, 262146, 3932208, 0, 262145, 3932209, 0, 262145, 3932210, 0, 262145, 3932211, 0, 262145, 3932212, 0, 262145, 3932213, 0, 262146, 3932214, 0, 262147, 3932215, 0, 262147, 3932216, 0, 262145, 3932217, 0, 262145, 3932218, 0, 262145, 3997708, 0, 262145, 3997709, 0, 262145, 3997710, 0, 262145, 3997711, 0, 262145, 3997712, 0, 262145, 3997713, 0, 65538, 3997714, 0, 65538, 3997715, 0, 65538, 3997716, 0, 65538, 3997717, 0, 65538, 3997718, 0, 65538, 3997719, 0, 65538, 3997720, 0, 65538, 3997721, 0, 65538, 3997722, 0, 65538, 3997723, 0, 65538, 3997724, 0, 65538, 3997727, 0, 262145, 3997728, 0, 262145, 3997729, 0, 262145, 3997730, 0, 262145, 3997731, 0, 262145, 3997732, 0, 262145, 3997733, 0, 262147, 3997734, 0, 327682, 3997735, 0, 327682, 3997736, 0, 262145, 3997737, 0, 262147, 3997738, 0, 393217, 3997739, 0, 393218, 3997740, 0, 262146, 3997741, 0, 262146, 3997742, 0, 262145, 3997743, 0, 262145, 3997744, 0, 262146, 3997745, 0, 262146, 3997746, 0, 262146, 3997747, 0, 262146, 3997748, 0, 262146, 3997749, 0, 262147, 3997750, 0, 262147, 3997751, 0, 262146, 3997752, 0, 262145, 3997753, 0, 262145, 3997754, 0, 262145, 4063244, 0, 262145, 4063245, 0, 262145, 4063246, 0, 262145, 4063247, 0, 262145, 4063248, 0, 262145, 4063249, 0, 262145, 4063250, 0, 262145, 4063251, 0, 262145, 4063252, 0, 262145, 4063253, 0, 262145, 4063254, 0, 262145, 4063255, 0, 262145, 4063256, 0, 262145, 4063257, 0, 262145, 4063258, 0, 262145, 4063259, 0, 262145, 4063260, 0, 262145, 4063261, 0, 65537, 4063262, 0, 65539, 4063263, 0, 262145, 4063264, 0, 262145, 4063265, 0, 262145, 4063266, 0, 262145, 4063267, 0, 262145, 4063268, 0, 262147, 4063269, 0, 262147, 4063270, 0, 262146, 4063271, 0, 262146, 4063272, 0, 262146, 4063273, 0, 262146, 4063274, 0, 262146, 4063275, 0, 262146, 4063276, 0, 262146, 4063277, 0, 262146, 4063278, 0, 262146, 4063279, 0, 262146, 4063280, 0, 262146, 4063281, 0, 262146, 4063282, 0, 262147, 4063283, 0, 262147, 4063284, 0, 262147, 4063285, 0, 262147, 4063286, 0, 262147, 4063287, 0, 262146, 4063288, 0, 262145, 4063289, 0, 262145, 4063290, 0, 262145, 4128780, 0, 262145, 4128781, 0, 262145, 4128782, 0, 262145, 4128783, 0, 262145, 4128784, 0, 262145, 4128785, 0, 262145, 4128786, 0, 262145, 4128787, 0, 262145, 4128788, 0, 262145, 4128789, 0, 262145, 4128790, 0, 262145, 4128791, 0, 327683, 4128792, 0, 327681, 4128793, 0, 262145, 4128794, 0, 262145, 4128795, 0, 262145, 4128796, 0, 262145, 4128797, 0, 262145, 4128798, 0, 262145, 4128799, 0, 262145, 4128800, 0, 262145, 4128801, 0, 262145, 4128802, 0, 262145, 4128803, 0, 262145, 4128804, 0, 262147, 4128805, 0, 262145, 4128806, 0, 262145, 4128807, 0, 262145, 4128808, 0, 262145, 4128809, 0, 262145, 4128810, 0, 262145, 4128811, 0, 262145, 4128812, 0, 262146, 4128813, 0, 262146, 4128814, 0, 262145, 4128815, 0, 262145, 4128816, 0, 262147, 4128817, 0, 262145, 4128818, 0, 262145, 4128819, 0, 262145, 4128820, 0, 262145, 4128821, 0, 262145, 4128822, 0, 262145, 4128823, 0, 262147, 4128824, 0, 262147, 4128825, 0, 262145, 4128826, 0, 262145, 4194316, 0, 262145, 4194317, 0, 262145, 4194318, 0, 262145, 4194319, 0, 262145, 4194320, 0, 262145, 4194321, 0, 262145, 4194322, 0, 262145, 4194323, 0, 262145, 4194324, 0, 262145, 4194325, 0, 262145, 4194326, 0, 262145, 4194327, 0, 393217, 4194328, 0, 393218, 4194329, 0, 262145, 4194330, 0, 262145, 4194331, 0, 262145, 4194332, 0, 262145, 4194333, 0, 262145, 4194334, 0, 262145, 4194335, 0, 262145, 4194336, 0, 262145, 4194337, 0, 262145, 4194338, 0, 262145, 4194339, 0, 262145, 4194340, 0, 262147, 4194341, 0, 262147, 4194342, 0, 262147, 4194343, 0, 262147, 4194344, 0, 262147, 4194345, 0, 262147, 4194346, 0, 262147, 4194347, 0, 262147, 4194348, 0, 262147, 4194349, 0, 262147, 4194350, 0, 262147, 4194351, 0, 262147, 4194352, 0, 262145, 4194353, 0, 262145, 4194354, 0, 262145, 4194355, 0, 262145, 4194356, 0, 262145, 4194357, 0, 262145, 4194358, 0, 262147, 4194359, 0, 262147, 4194360, 0, 262145, 4194361, 0, 262145, 4194362, 0, 262145, 4259852, 0, 262145, 4259853, 0, 262145, 4259854, 0, 262145, 4259855, 0, 262145, 4259856, 0, 262145, 4259857, 0, 262145, 4259858, 0, 262145, 4259859, 0, 262145, 4259860, 0, 262145, 4259861, 0, 262145, 4259862, 0, 262145, 4259863, 0, 262145, 4259864, 0, 262145, 4259865, 0, 262145, 4259866, 0, 262145, 4259867, 0, 262145, 4259868, 0, 262145, 4259869, 0, 524290, 4259870, 0, 524291, 4259871, 0, 262145, 4259872, 0, 262145, 4259873, 0, 262145, 4259874, 0, 262145, 4259875, 0, 262145, 4259876, 0, 262145, 4259877, 0, 262145, 4259878, 0, 262145, 4259879, 0, 262145, 4259880, 0, 262145, 4259881, 0, 262145, 4259882, 0, 262145, 4259883, 0, 262145, 4259884, 0, 262145, 4259885, 0, 262145, 4259886, 0, 262145, 4259887, 0, 262145, 4259888, 0, 262145, 4259889, 0, 262145, 4259890, 0, 262145, 4259891, 0, 262145, 4259892, 0, 262145, 4259893, 0, 262145, 4259894, 0, 262145, 4259895, 0, 262145, 4259896, 0, 262145, 4259897, 0, 262145, 4259898, 0, 262145, 4325387, 0, 589824, 4325388, 0, 65538, 4325389, 0, 65538, 4325390, 0, 65538, 4325391, 0, 65538, 4325392, 0, 65538, 4325393, 0, 65538, 4325394, 0, 65538, 4325395, 0, 65538, 4325396, 0, 65538, 4325397, 0, 65538, 4325398, 0, 65538, 4325399, 0, 65538, 4325400, 0, 65538, 4325401, 0, 65538, 4325402, 0, 65538, 4325403, 0, 65538, 4325404, 0, 65538, 4325405, 0, 589825, 4325406, 0, 589824, 4325407, 0, 65538, 4325408, 0, 65538, 4325409, 0, 65538, 4325410, 0, 65538, 4325411, 0, 65538, 4325412, 0, 65538, 4325413, 0, 65538, 4325414, 0, 65538, 4325415, 0, 65538, 4325416, 0, 65538, 4325417, 0, 65538, 4325418, 0, 65538, 4325419, 0, 65538, 4325420, 0, 65538, 4325421, 0, 65538, 4325422, 0, 65538, 4325423, 0, 65538, 4325424, 0, 65538, 4325425, 0, 65538, 4325426, 0, 65538, 4325427, 0, 65538, 4325428, 0, 65538, 4325429, 0, 65538, 4325430, 0, 65538, 4325431, 0, 65538, 4325432, 0, 65538, 4325433, 0, 65538, 4325434, 0, 65538, 4325435, 0, 589825 )

[node name="Decor" type="TileMap" parent="."]
position = Vector2( 3.05176e-05, 3.05176e-05 )
tile_set = ExtResource( 2 )
cell_size = Vector2( 16, 16 )
collision_mask = 14
format = 1
tile_data = PoolIntArray( 0, 0, 458752, 1, 0, 2, 2, 0, 2, 3, 0, 2, 4, 0, 2, 5, 0, 2, 6, 0, 2, 7, 0, 2, 8, 0, 2, 9, 0, 2, 10, 0, 2, 11, 0, 2, 12, 0, 2, 13, 0, 2, 14, 0, 2, 15, 0, 2, 16, 0, 2, 17, 0, 2, 18, 0, 2, 19, 0, 2, 20, 0, 2, 21, 0, 2, 22, 0, 2, 23, 0, 2, 24, 0, 2, 25, 0, 2, 26, 0, 2, 27, 0, 2, 28, 0, 2, 29, 0, 458753, 30, 0, 458752, 31, 0, 2, 32, 0, 2, 33, 0, 2, 34, 0, 2, 35, 0, 2, 36, 0, 2, 37, 0, 2, 38, 0, 2, 39, 0, 2, 40, 0, 2, 41, 0, 2, 42, 0, 2, 43, 0, 2, 44, 0, 2, 45, 0, 2, 46, 0, 2, 47, 0, 2, 48, 0, 2, 49, 0, 2, 50, 0, 2, 51, 0, 2, 52, 0, 2, 53, 0, 2, 54, 0, 2, 55, 0, 2, 56, 0, 2, 57, 0, 2, 58, 0, 2, 59, 0, 458753, 65536, 0, 524288, 65565, 0, 524289, 65566, 0, 524288, 65595, 0, 524289, 131072, 0, 524288, 131101, 0, 524289, 131102, 0, 524288, 131131, 0, 524289, 196608, 0, 524288, 196637, 0, 524289, 196638, 0, 524288, 196667, 0, 524289, 262144, 0, 524288, 262173, 0, 524289, 262174, 0, 524288, 262203, 0, 524289, 327680, 0, 524288, 327709, 0, 524289, 327710, 0, 524288, 327739, 0, 524289, 393216, 0, 524288, 393245, 0, 524289, 393246, 0, 524288, 393275, 0, 524289, 458752, 0, 524288, 458781, 0, 524289, 458782, 0, 524288, 458811, 0, 524289, 524288, 0, 524288, 524292, 0, 0, 524317, 0, 524289, 524318, 0, 524288, 524347, 0, 524289, 589824, 0, 524288, 589853, 0, 524289, 589854, 0, 524288, 589883, 0, 524289, 655360, 0, 524288, 655389, 0, 589826, 655390, 0, 589827, 655419, 0, 524289, 720896, 0, 524288, 720955, 0, 524289, 786432, 0, 524288, 786491, 0, 524289, 851968, 0, 524288, 851997, 0, 458754, 851998, 0, 458755, 852027, 0, 524289, 917504, 0, 524288, 917505, 0, 2, 917506, 0, 2, 917507, 0, 2, 917508, 0, 2, 917509, 0, 2, 917510, 0, 2, 917511, 0, 2, 917512, 0, 2, 917513, 0, 2, 917514, 0, 2, 917515, 0, 2, 917516, 0, 2, 917517, 0, 2, 917518, 0, 2, 917519, 0, 2, 917520, 0, 2, 917521, 0, 2, 917522, 0, 2, 917523, 0, 2, 917524, 0, 2, 917525, 0, 2, 917526, 0, 2, 917527, 0, 2, 917528, 0, 2, 917529, 0, 2, 917530, 0, 2, 917531, 0, 2, 917532, 0, 2, 917533, 0, 524289, 917534, 0, 524288, 917535, 0, 2, 917536, 0, 2, 917537, 0, 2, 917538, 0, 2, 917539, 0, 2, 917540, 0, 2, 917541, 0, 2, 917542, 0, 2, 917543, 0, 2, 917544, 0, 2, 917545, 0, 2, 917546, 0, 2, 917547, 0, 2, 917548, 0, 2, 917549, 0, 2, 917550, 0, 2, 917551, 0, 2, 917552, 0, 2, 917553, 0, 2, 917554, 0, 2, 917555, 0, 2, 917556, 0, 2, 917557, 0, 2, 917558, 0, 2, 917559, 0, 458755, 917562, 0, 458754, 917563, 0, 524289, 983095, 0, 524288, 983098, 0, 524289, 1048631, 0, 524288, 1048634, 0, 524289, 1114112, 0, 458752, 1114113, 0, 2, 1114114, 0, 2, 1114115, 0, 2, 1114116, 0, 2, 1114117, 0, 2, 1114118, 0, 2, 1114119, 0, 2, 1114120, 0, 2, 1114121, 0, 2, 1114122, 0, 2, 1114123, 0, 2, 1114124, 0, 2, 1114125, 0, 2, 1114126, 0, 2, 1114127, 0, 2, 1114128, 0, 2, 1114129, 0, 2, 1114130, 0, 2, 1114131, 0, 2, 1114132, 0, 2, 1114133, 0, 2, 1114134, 0, 2, 1114135, 0, 2, 1114136, 0, 2, 1114137, 0, 2, 1114138, 0, 2, 1114139, 0, 2, 1114140, 0, 2, 1114141, 0, 458753, 1114142, 0, 458752, 1114143, 0, 2, 1114144, 0, 2, 1114145, 0, 2, 1114146, 0, 2, 1114147, 0, 2, 1114148, 0, 2, 1114149, 0, 2, 1114150, 0, 2, 1114151, 0, 2, 1114152, 0, 2, 1114153, 0, 2, 1114154, 0, 2, 1114155, 0, 2, 1114156, 0, 2, 1114157, 0, 2, 1114158, 0, 2, 1114159, 0, 2, 1114160, 0, 2, 1114161, 0, 2, 1114162, 0, 2, 1114163, 0, 2, 1114164, 0, 2, 1114165, 0, 2, 1114166, 0, 2, 1114167, 0, 589827, 1114170, 0, 589826, 1114171, 0, 458753, 1179648, 0, 524288, 1179677, 0, 589826, 1179678, 0, 589827, 1179707, 0, 524289, 1245184, 0, 524288, 1245243, 0, 524289, 1310720, 0, 524288, 1310779, 0, 524289, 1376256, 0, 524288, 1376285, 0, 458754, 1376286, 0, 458755, 1376315, 0, 524289, 1441792, 0, 524288, 1441821, 0, 524289, 1441822, 0, 524288, 1441851, 0, 524289, 1507328, 0, 524288, 1507357, 0, 524289, 1507358, 0, 524288, 1507387, 0, 524289, 1572864, 0, 524288, 1572893, 0, 524289, 1572894, 0, 524288, 1572923, 0, 524289, 1638400, 0, 524288, 1638429, 0, 524289, 1638430, 0, 524288, 1638459, 0, 524289, 1703936, 0, 524288, 1703965, 0, 524289, 1703966, 0, 524288, 1703995, 0, 524289, 1769472, 0, 524288, 1769501, 0, 524289, 1769502, 0, 524288, 1769531, 0, 524289, 1835008, 0, 524288, 1835037, 0, 524289, 1835038, 0, 524288, 1835067, 0, 524289, 1900544, 0, 524288, 1900573, 0, 524289, 1900574, 0, 524288, 1900603, 0, 524289, 1966080, 0, 524288, 1966109, 0, 524289, 1966110, 0, 524288, 1966139, 0, 524289, 2031616, 0, 524288, 2031617, 0, 458755, 2031620, 0, 458754, 2031621, 0, 2, 2031622, 0, 2, 2031623, 0, 2, 2031624, 0, 2, 2031625, 0, 2, 2031626, 0, 2, 2031627, 0, 2, 2031628, 0, 2, 2031629, 0, 2, 2031630, 0, 2, 2031631, 0, 2, 2031632, 0, 2, 2031633, 0, 2, 2031634, 0, 2, 2031635, 0, 2, 2031636, 0, 2, 2031637, 0, 2, 2031638, 0, 2, 2031639, 0, 2, 2031640, 0, 2, 2031641, 0, 2, 2031642, 0, 2, 2031643, 0, 2, 2031644, 0, 2, 2031645, 0, 524289, 2031646, 0, 524288, 2031647, 0, 2, 2031648, 0, 2, 2031649, 0, 2, 2031650, 0, 2, 2031651, 0, 2, 2031652, 0, 2, 2031653, 0, 2, 2031654, 0, 2, 2031655, 0, 2, 2031656, 0, 2, 2031657, 0, 2, 2031658, 0, 2, 2031659, 0, 2, 2031660, 0, 2, 2031661, 0, 2, 2031662, 0, 2, 2031663, 0, 2, 2031664, 0, 2, 2031665, 0, 2, 2031666, 0, 2, 2031667, 0, 2, 2031668, 0, 2, 2031669, 0, 2, 2031670, 0, 2, 2031671, 0, 2, 2031672, 0, 2, 2031673, 0, 2, 2031674, 0, 2, 2031675, 0, 524289, 2097153, 0, 524288, 2097156, 0, 524289, 2162689, 0, 524288, 2162692, 0, 524289, 2228225, 0, 589827, 2228228, 0, 589826, 2228229, 0, 2, 2228230, 0, 2, 2228231, 0, 2, 2228232, 0, 2, 2228233, 0, 2, 2228234, 0, 2, 2228235, 0, 2, 2228236, 0, 2, 2228237, 0, 2, 2228238, 0, 2, 2228239, 0, 2, 2228240, 0, 2, 2228241, 0, 2, 2228242, 0, 2, 2228243, 0, 2, 2228244, 0, 2, 2228245, 0, 2, 2228246, 0, 2, 2228247, 0, 2, 2228248, 0, 2, 2228249, 0, 2, 2228250, 0, 2, 2228251, 0, 2, 2228252, 0, 2, 2228253, 0, 458753, 2228254, 0, 458752, 2228255, 0, 2, 2228256, 0, 2, 2228257, 0, 2, 2228258, 0, 2, 2228259, 0, 2, 2228260, 0, 2, 2228261, 0, 2, 2228262, 0, 2, 2228263, 0, 2, 2228264, 0, 2, 2228265, 0, 2, 2228266, 0, 2, 2228267, 0, 2, 2228268, 0, 2, 2228269, 0, 2, 2228270, 0, 2, 2228271, 0, 2, 2228272, 0, 2, 2228273, 0, 2, 2228274, 0, 2, 2228275, 0, 2, 2228276, 0, 2, 2228277, 0, 2, 2228278, 0, 2, 2228279, 0, 2, 2228280, 0, 2, 2228281, 0, 2, 2228282, 0, 2, 2228283, 0, 458753, 2293760, 0, 524288, 2293789, 0, 524289, 2293790, 0, 524288, 2293819, 0, 524289, 2359296, 0, 524288, 2359325, 0, 524289, 2359326, 0, 524288, 2359355, 0, 524289, 2424832, 0, 524288, 2424861, 0, 524289, 2424862, 0, 524288, 2424891, 0, 524289, 2490368, 0, 524288, 2490397, 0, 524289, 2490398, 0, 524288, 2490427, 0, 524289, 2555904, 0, 524288, 2555933, 0, 524289, 2555934, 0, 524288, 2555963, 0, 524289, 2621440, 0, 524288, 2621469, 0, 524289, 2621470, 0, 524288, 2621499, 0, 524289, 2686976, 0, 524288, 2687005, 0, 524289, 2687006, 0, 524288, 2687035, 0, 524289, 2752512, 0, 524288, 2752541, 0, 524289, 2752542, 0, 524288, 2752571, 0, 524289, 2818048, 0, 524288, 2818077, 0, 524289, 2818078, 0, 524288, 2818107, 0, 524289, 2883584, 0, 524288, 2883613, 0, 589826, 2883614, 0, 589827, 2883643, 0, 524289, 2949120, 0, 524288, 2949179, 0, 524289, 3014656, 0, 524288, 3014715, 0, 524289, 3080192, 0, 524288, 3080221, 0, 458754, 3080222, 0, 458755, 3080251, 0, 524289, 3145728, 0, 524288, 3145729, 0, 2, 3145730, 0, 2, 3145731, 0, 2, 3145732, 0, 2, 3145733, 0, 2, 3145734, 0, 2, 3145735, 0, 2, 3145736, 0, 2, 3145737, 0, 2, 3145738, 0, 2, 3145739, 0, 2, 3145740, 0, 2, 3145741, 0, 2, 3145742, 0, 2, 3145743, 0, 2, 3145744, 0, 2, 3145745, 0, 2, 3145746, 0, 2, 3145747, 0, 2, 3145748, 0, 2, 3145749, 0, 2, 3145750, 0, 2, 3145751, 0, 2, 3145752, 0, 2, 3145753, 0, 2, 3145754, 0, 2, 3145755, 0, 2, 3145756, 0, 2, 3145757, 0, 524289, 3145758, 0, 524288, 3145759, 0, 2, 3145760, 0, 2, 3145761, 0, 2, 3145762, 0, 2, 3145763, 0, 2, 3145764, 0, 2, 3145765, 0, 2, 3145766, 0, 2, 3145767, 0, 2, 3145768, 0, 2, 3145769, 0, 2, 3145770, 0, 2, 3145771, 0, 2, 3145772, 0, 2, 3145773, 0, 2, 3145774, 0, 2, 3145775, 0, 2, 3145776, 0, 2, 3145777, 0, 2, 3145778, 0, 2, 3145779, 0, 2, 3145780, 0, 2, 3145781, 0, 2, 3145782, 0, 2, 3145783, 0, 458755, 3145786, 0, 458754, 3145787, 0, 524289, 3211319, 0, 524288, 3211322, 0, 524289, 3276855, 0, 524288, 3276858, 0, 524289, 3342347, 0, 458752, 3342348, 0, 2, 3342349, 0, 2, 3342350, 0, 2, 3342351, 0, 2, 3342352, 0, 2, 3342353, 0, 458753, 3342366, 0, 458752, 3342367, 0, 2, 3342368, 0, 2, 3342369, 0, 5, 3342370, 0, 2, 3342371, 0, 2, 3342372, 0, 5, 3342373, 0, 2, 3342374, 0, 2, 3342375, 0, 5, 3342376, 0, 2, 3342377, 0, 2, 3342378, 0, 5, 3342379, 0, 2, 3342380, 0, 2, 3342381, 0, 5, 3342382, 0, 2, 3342383, 0, 2, 3342384, 0, 5, 3342385, 0, 2, 3342386, 0, 2, 3342387, 0, 5, 3342388, 0, 2, 3342389, 0, 2, 3342390, 0, 5, 3342391, 0, 589827, 3342394, 0, 589826, 3342395, 0, 458753, 3407883, 0, 524288, 3407889, 0, 524289, 3407902, 0, 524288, 3407905, 0, 65541, 3407908, 0, 196613, 3407911, 0, 65541, 3407914, 0, 196613, 3407917, 0, 65541, 3407920, 0, 196613, 3407923, 0, 65541, 3407926, 0, 196613, 3407931, 0, 524289, 3473419, 0, 524288, 3473425, 0, 524289, 3473438, 0, 524288, 3473441, 0, 131077, 3473444, 0, 262149, 3473447, 0, 131077, 3473450, 0, 262149, 3473453, 0, 131077, 3473456, 0, 262149, 3473459, 0, 131077, 3473462, 0, 262149, 3473467, 0, 524289, 3538955, 0, 524288, 3538961, 0, 524289, 3538974, 0, 524288, 3539003, 0, 524289, 3604491, 0, 524288, 3604493, 0, 851970, 3604494, 0, 851971, 3604497, 0, 524289, 3604510, 0, 524288, 3604539, 0, 524289, 3670027, 0, 524288, 3670028, 0, 917505, 3670029, 0, 917509, 3670030, 0, 917510, 3670031, 0, 917508, 3670032, 0, 2, 3670033, 0, 524289, 3670046, 0, 524288, 3670075, 0, 524289, 3735563, 0, 524288, 3735564, 0, 983041, 3735565, 0, 983045, 3735566, 0, 983046, 3735567, 0, 983044, 3735568, 0, 65538, 3735569, 0, 524289, 3735582, 0, 524288, 3735611, 0, 524289, 3801099, 0, 524288, 3801105, 0, 524289, 3801118, 0, 524288, 3801147, 0, 524289, 3866635, 0, 524288, 3866641, 0, 524289, 3866654, 0, 524288, 3866683, 0, 524289, 3932171, 0, 524288, 3932177, 0, 589826, 3932178, 0, 2, 3932179, 0, 2, 3932180, 0, 2, 3932181, 0, 2, 3932182, 0, 2, 3932183, 0, 2, 3932184, 0, 2, 3932185, 0, 2, 3932186, 0, 2, 3932187, 0, 2, 3932188, 0, 2, 3932189, 0, 458753, 3932190, 0, 524288, 3932219, 0, 524289, 3997707, 0, 524288, 3997725, 0, 589826, 3997726, 0, 589827, 3997755, 0, 524289, 4063243, 0, 524288, 4063291, 0, 524289, 4128779, 0, 524288, 4128827, 0, 524289, 4194315, 0, 524288, 4194333, 0, 458754, 4194334, 0, 458755, 4194363, 0, 524289, 4259851, 0, 524288, 4259852, 0, 2, 4259853, 0, 2, 4259854, 0, 2, 4259855, 0, 2, 4259856, 0, 2, 4259857, 0, 2, 4259858, 0, 2, 4259859, 0, 2, 4259860, 0, 2, 4259861, 0, 2, 4259862, 0, 2, 4259863, 0, 2, 4259864, 0, 2, 4259865, 0, 2, 4259866, 0, 2, 4259867, 0, 2, 4259868, 0, 2, 4259869, 0, 524289, 4259870, 0, 524288, 4259871, 0, 2, 4259872, 0, 2, 4259873, 0, 327686, 4259874, 0, 2, 4259875, 0, 2, 4259876, 0, 327686, 4259877, 0, 2, 4259878, 0, 2, 4259879, 0, 327686, 4259880, 0, 2, 4259881, 0, 2, 4259882, 0, 327686, 4259883, 0, 2, 4259884, 0, 2, 4259885, 0, 327686, 4259886, 0, 2, 4259887, 0, 2, 4259888, 0, 327686, 4259889, 0, 2, 4259890, 0, 2, 4259891, 0, 327686, 4259892, 0, 2, 4259893, 0, 2, 4259894, 0, 327686, 4259895, 0, 2, 4259896, 0, 2, 4259897, 0, 327686, 4259898, 0, 2, 4259899, 0, 524289, 4325409, 0, 393221, 4325412, 0, 393221, 4325415, 0, 393221, 4325418, 0, 393221, 4325421, 0, 393221, 4325424, 0, 393221, 4325427, 0, 393221, 4325430, 0, 393221, 4325433, 0, 393221, 4390945, 0, 458757, 4390948, 0, 458757, 4390951, 0, 458757, 4390954, 0, 458757, 4390957, 0, 458757, 4390960, 0, 458757, 4390963, 0, 458757, 4390966, 0, 458757, 4390969, 0, 458757 )

[node name="Player" parent="." instance=ExtResource( 1 )]
position = Vector2( 80, 60 )

[node name="Rooms" type="Node2D" parent="."]
__meta__ = {
"_edit_lock_": true
}

[node name="Room" parent="Rooms" instance=ExtResource( 3 )]
NUMBER_OF_ENEMIS = 2
ARROW_SIDE = 1

[node name="Room2" parent="Rooms" instance=ExtResource( 3 )]
position = Vector2( 480, 0 )
NUMBER_OF_ENEMIS = 3
ARROW_DIRECTION = 1
ARROW_SIDE = 1

[node name="Room3" parent="Rooms" instance=ExtResource( 3 )]
position = Vector2( 480, 272 )
NUMBER_OF_ENEMIS = 4
ARROW_DIRECTION = 2

[node name="Room4" parent="Rooms" instance=ExtResource( 3 )]
position = Vector2( 0, 272 )
NUMBER_OF_ENEMIS = 5
ARROW_DIRECTION = 1

[node name="Room5" parent="Rooms" instance=ExtResource( 3 )]
position = Vector2( 0, 544 )
NUMBER_OF_ENEMIS = 6
ARROW_SIDE = 1

[node name="Room6" parent="Rooms" instance=ExtResource( 3 )]
position = Vector2( 480, 544 )
NUMBER_OF_ENEMIS = 7
ARROW_DIRECTION = 1
ARROW_SIDE = 1

[node name="BossRoom" parent="Rooms" instance=ExtResource( 9 )]
position = Vector2( 480, 816 )
ARROW_DIRECTION = 2
ARROW_SIDE = 1

[node name="FinalRoom" type="Area2D" parent="Rooms"]
position = Vector2( 232, 880 )

[node name="CollisionShape2D" type="CollisionShape2D" parent="Rooms/FinalRoom"]
position = Vector2( 0, 8 )
shape = SubResource( 1 )

[node name="AnimatedSprite" type="AnimatedSprite" parent="Rooms/FinalRoom"]
position = Vector2( 0, -12 )
frames = SubResource( 2 )
playing = true

[node name="Camera2D" type="Camera2D" parent="."]
position = Vector2( 240, 136 )
current = true

[node name="CanvasLayer" type="CanvasLayer" parent="Camera2D"]

[node name="GUI" parent="Camera2D/CanvasLayer" instance=ExtResource( 4 )]

[node name="GameOver" parent="Camera2D/CanvasLayer" instance=ExtResource( 5 )]
visible = false
sceneName = "MainMenu"

[node name="Menu" parent="Camera2D/CanvasLayer" instance=ExtResource( 8 )]
visible = false

[node name="AudioStreamPlayer" type="AudioStreamPlayer" parent="Camera2D"]
pause_mode = 2
stream = ExtResource( 7 )
autoplay = true
[connection signal="body_entered" from="Rooms/FinalRoom" to="." method="_on_FinalRoom_body_entered"]
