[gd_scene load_steps=3 format=2]

[ext_resource path="res://scenes/enemies/Enemy.tscn" type="PackedScene" id=1]
[ext_resource path="res://assets/images/DungeonTilesetII/orc_warrior.png" type="Texture" id=2]

[node name="OrcWarrior" instance=ExtResource( 1 )]
MOVEMENT_SPEED = 75
HEALTH_POINTS = 2

[node name="Sprite" parent="." index="1"]
position = Vector2( -1, -1 )
texture = ExtResource( 2 )
